comment	vote_up	vote_down
Komsic bar nece izabrati ambasadora BiH koji će raditi protiv vlastite države	4067	59
@ kurkokitic ...eh tebe.. pa svi uovoj drzavi i vi u vasoj tamo paradrzavi imaju istu taktiku: Svi se bore protiv nekog zla nebili ih to zlo primjetilo i privuklo sebi!	26	11
@kurkokitic Odakle ti znas kakve su njene reference osim sto si procitao na klixu ! Samo sebe blamiras bez potrebe.	63	37
@kurkokitic ... ne baš svi ali ogromna večina to dokazuje na svakodnevnim primjerima, svi nešto morališu da bi se kasnije prodali za funkciju ili Ministarstvo. Samo što je u RS-u završena jedna priča oko razbijanja opozicije u Federaciji je počela ova druga ko će biti partner SDA mladoj. Nakon moralisanja da neće niko, sad se svi kolebaju i komešaju ko će se više dodvoriti.	10	1
@Bratko Martina Mlinarević: Otići iz BiH postalo je pitanje časti prema samome sebi	36	3
Covicevi citavu Cesku poznaju 😆😆😀	5	5
@Bratko čestitike. Još jedan stručni kadar Sejde Komšića...ubila se za diplomaciju..uništila obitelj dvama muškarcima	5	12
Žena od čelika, svaka čast !	388	67
@kurkokitic e moj kurko, ova zena osim sto je izvrsna spisateljica, stalno podize svijest o karcinomu dojke, pise veoma inspirativno i ohrabrujuce, kud ces veceg razloga da bude tu gdje su je predlozili? mislim da tvitovi nemaju veze sa ovim, vec njena zivotna prica i licnost koja je izvrsna za motiviranje ljudi	51	29
@licorne ajde ti predloži nekoga? stvar je aktivizma i utjecaja, bolje ona nego neki moron	9	12
@Morphodidius Najveći šljam. Što reći o ženi koja odvojila jednog čovjeka od njegovog dijeta i drugog čovjeka od njegove obitelji sa troje djece... i sve to pišući o njekoj velikoj ljubavi i poštenju. A svoju bolest je razglasila na sva zvona kao da je ona jedina koja ima taj problem.	13	9
Naprijed, ženo!	1	0
Radostan sam zbog prejedloga gđe. Mlinarević. za Ambasadorice u Češkoj. Bolja osoba ne postoji na ovim prostorima za tu funkciju sretno Martina na novoj funkciji.	3	0
ja grdniju osobu u zivotu vidio nisam. Iskompleksirana i mahnita. Trovacica, nama ovakve osobe ne trebaju.	3	5
Jeli saglasan Čović?	1	0
Ova novinarka je dugo pisala za UZP poskok.info	2	3
"Pisala na ""Poskoku"", Hercegovka i Hrvatica do koske. Neko joj platio i napisala par afirmativnih tekstova o Komšiću, a pošto to ni jedan Hrvat, osim Mesića I Slave Kukića ne radi, Komšo je postavio nju, čisto da bude neki Hrvat. Ne znam što nije poslao Slavu.. Mesića ne može."	4	0
Sto se Zeljke Komsica tice, meni je bio drag iako su ga mnogi pljuvali. Ali stvarno nije normalan. Gdine Zeljko, imate li vi ikakvog pojma sto znaci biti diplomata, amabsador u stranoj zemlji? Jeste li vi normalni?	15	3
Vi ste ludi. Super zena ali ambasadorica? Vi pojma vise nemate koje su uopce odlike strucnjaka i reference koje su potrebne a kamoli bilo sta drugo. Nije ni cudo doduse s obzirom na odljev mozgova na balkanu. svi ste postali generalno reta.rdirani.	21	2
Žena nema pojma o diplomatiji...ovdje treba da idu diplomate i ljudi sa diplomatskim iskustvom	16	6
Gdje je ovdje kompetentnost? Stručnost? O ženi znam da je stručna jezikara. Pun klinički centar bolesnih ljudi. Jel to kompetencija što pišeš članke o ličnoj bolesti da postaneš ambasador? Koliko je takvih i težih i mnogo težih nenapisanih priča žena oboljelih od raka, nijedna manje važna ali za ambasadorsku poziciju nebitne jer one nemaju dug jezik kao Martina? 1/2	18	6
@šefica Mislite da Martina jedina izgleda onako kao sa naslovnice? Otiđite na onkološki odjel da vidite šta je hrabrost..2/2	6	2
@šefica kao i cijela DF bagra..... stručnost i kompetentnost ni za lijeka	7	1
Sigurno bi bila bolja nego 90 % profesionalnih diplomata..	7	4
@saibaba što će reći da su nam ostali diplomati u još većem kur...	6	0
Ne kontam nikako kako neka knjizevnica moze biti ambasador u tako vaznoj zemlji? Danas doktor moze biti elektricar, pravnik vodoinstalater, itd. Nema nikakvog poretka ni u cemu.	15	4
@gendolf Vazna zemlja ko donji drkonjci, selo pored pripizdine.	2	5
Kurcoglavi Covic na aparatima, Hrvatska manjina ce uz pomoć Allaha biti protjerana sa Hercegovačkih poljana, gdje cemo nastaviti da širimo naš Islam prema Rimu jer nemojte zaboravite jedan od predznaka Sudnjeg dana je taj da ce muslimani zauzeti Rim!	5	34
@Wando hahahha... pa ako si agitar nečijeg prorokovanja onda znači da si na krivoj strani	5	0
hoće li iko ikad u ovoj državi izabrati školovanog diplomatu za Ambasadora? pa hebo mater onda se pitaju zašto nam je lobi nikakav u svijetu	32	1
@poshlaufajga22 Ma nisu normalni. Al fakat.	7	0
NAPOKON NEKO NORMALAN! SVAKA ČAST NA IZBORU!	21	32
@ledeny izvinjavam se za caps lock, ostao uključen :)	5	8
@ledeny rezime: profesionalno uništava brakove, profesionalna žrtva raka dojke (kao da je jedina), i piše neke škrabotnine	5	6
@ledeny Jesi ti cist? Diplomacija je posao a ne kakav si u dusi. Super da si dobar al je.biga kao sto ti ni na bausteli nije dovoljno da si dobar zamisli kako je tek u diplomaciji. Kako ste glupi zaista ne mogu vjerovati. Bas ste na dnu.	11	0
Sve ove kojima se ova prodala, nađite njene tekstove iz vremena kada je ubijen Vedran Puljić i pogledajte tu količinu hijenske ironije i sarkazma nad sudbinom Vedrana i ostalih momaka iz Hz. To joj nikad nisam niti ću moći zaboraviti. Ona je samo jedna verzija, malo prefidnije upakovana verzija, Nine Raspudića.	23	10
@Terra_dementia bravo, jedini pametan komentar. Najblaže rečeno ova žena je neuračunljiva. Nino je bar uvijek ostavao pri svome...	4	0
Super odluka,bolje od martine ne moze	6	23
Ne voli Martina uhljebe,proziva ih pa postade jedan od njih!	46	3
Napokon pravi ambasador.	16	30
Žena je hrabra, pismena, kulturna i voli svoju domovinu. Bar se nećemo stiditi koga su poslali da nas predstavlja. Mislim da je ona ono bolje lice BiH, za mene sasvim dovoljne kvalifikacije.	31	37
@manamana ah kad se sijetim lijepih dana kad je bacala drvlje i kamenje na uljebe i političare... i evo gdje je sad	4	0
@manamana isto je hrabro raskopala dva braka	5	1
@manamana I ja sam zena. Ali ti nisi normalna. Totalno ste prosvikali svi skupa.	5	2
Možeš Željko još malo...uskoro će te Bošnjaci smjestiti na smetlište kao što su i Bogićevića, Divjaka, Pejanovića, Ivu Komšića, Lazovića, Tatjanu Ljujić Mijatović i ostale nebošnjake	29	28
@Roentgen79c mrš u rupu mišu	11	8
Odusevljena sam ...Martina svako dobro zelim ❤️🇧🇦	21	23
mislim da je ova svojedobno optuzila covica da je on kriv za njen rak dojke...	27	5
Ona je jako kompetentna za diplomaciju...al pošto je odabrao Komšo Bošnje će naravno da šute	23	14
Kupiti stan,auto,imati služavku to vam je gospoda Sopta i to knjige ma baš!	13	4
Ona je na početku bila na razini Šušnjare kad je vidjela da to ne pali brzo je promjenila ploču,pročitajte njene radove od prije da vidite razliku!Nije ona domoljub vec paraljub gospodo!	47	3
Pa pametno, svi bi trebali mjenjati ploču kad nesto ne fercera. Evo 20 godina propadamo jer uporno mislimo da se moze ovako krenuti naprijed. Mislim da je krajnje vrijeme da mijenjamo ploču.	8	4
Dotična Gospoja dok skonta šta je posao Ambasadora. ..proći će joj mandat	26	7
Željun je cirkus od insana.	24	8
@kurko kizic Kakve veze ima vecina dosad imenovanih ambasadora sa diplomatijom? To su kadrovi nacionalnih stranaka koji, da nisu tako glupi kao sto jesu i da vremena nisu kakva jesu, ne bi mogli raditi ni na salteru.	24	2
@politika.je Martina je obrazovana mlada zena, knjizevnica. Vrhunski sportisti, filmadzije, knjizevnici, glazbenici (poput Ivice Sarica npr.) bili su i jesu najbolji ambasadori ove zemlje.	8	15
Klasićni populizam,šta nam rade hdz sda,df	6	4
Pa ova nije zaradila ni status slobodnog umjetnika, a vi bi je sa 37 godina u diplomatiju? Pa nije nominacija za volontera u AIESEC organizaciji ili Amnesty International, halo breeeee AMBASADOR!!!	23	5
Od kompetencija im to da očito voli ovu zemlju i osjeća je svojom a iz reda Hrvatakog naroda. To je sastvim dovoljno u odnosu na Čovićeve ustaše.	13	15
Ima li gdje kupiti njena sabrana djela? Ono, metar knjiga, za police, k'o kod Andrića..	15	8
Taman kada pomisliš da se na scenu izdigla neka osoba, za koju možeš reći, da je svoja, da je u nekom smislu moralna vertikala, sjeb.š se i otrijezniš, uvideći da su sve samo prodane duše, koje palamude zarad svojih sitnih interesa. Martina idi u Češku i ne vraćaj se. Ima ova tvorevina Martina poput tebe i previše. Još jedno razočarenje.	39	13
S kojim kompentencijama? Martina nekad puhala u ustaski rog, njeni tekstovi na Indexu su ledili krv u ziama, onda ostro promijenila smijer i sad je pitoma i rado vidjena Hercegovka (i Bosanka) koja lomi naslovnice BH medija svojom hrabroscu u borbi s bolestinom, al ambasadorka?	38	8
Sve ok, al kako će Komšić razriješiti ambasadora u Češkoj, kad je mjesto u Pragu prazno već četvrtu godinu Čovićevom odlukom? I zašto Klix ne napiše da je komšić počinio sječu hrvatskih ambasadora.	24	12
@ivan.susnjar Trenbo je Tebe lafo Šušnjaru imenovat,mrš na poskok i tamo provodi ustašku politiku	3	7
ma može kod nas sve.eto sada i blogeri mogu postati ambasadori.ja stvarno ne znam šta će nam fakulteti političkih nauka ili međunarodnih odnosa ....	37	7
Sta ima od skole da bi bila na tom mjestu?Koliko znam cura je zubni tehnicar nema apsolutno nikakvo diplomatsko iskustvo ali za muslimane je dovoljno da laje na Covica.	59	14
@Tehnicar eto Lidija Topic ima vise skole. Slikarka, umjetnica znaci takodje. I zubarica takodje, babo joj bio profa na Stomatologiji pa je kao I to zavrsila iako ni dana nije radila. Studirala je I medicinu, nema sta nije, smao je vjecno u diplomatiji	14	3
Bravo, bravo, bravo!	10	13
"Mozda bi Komsic trebao procitati tekstove ove osobe prije nego sto je postala ""probosanski"" orijentisana."	38	5
Pa gdje bolan Željko ovu što je po zmijskom forumu Bošnjake nazivala Mošnjaci?	36	9
Neka ti je sa srećom.Pokaži kako se to radi za svoju državu.	7	16
poturica Marina	19	13
Podvala Komšića,imenovao Hrvaticu Martinu iz kvote Ostalih,ha,ha,ha.	12	5
Populizam at its best.	21	3
Imenuj jos ovaj mandat u svojstvu hrvatskog clana, neces vise moci.. jedino ako te muslimani ne izaberu za svog ;)	15	19
Ovo je najljepsa vijest u posljednjih,mozda cu pretjerat,mozda nekoliko godina.Mlada,inteligentna,pozitivna,elokventna.Dok je ljudi kao sto je Martina,vjerujem i u nasu Bosnu i Hercegovinu	26	38
@kurko Ivo Andric i jeste bio bivsi ambasador Jugoslavije u Njemackoj	18	3
Poskok i consul Šušnjar na haparatima	23	14
ko je ckapi?	7	14
Velika podrska za Martinin izbor! Em pametna zena, em lijepa i uz to oslobodjena od nacionalizma.	24	21
Nadam se da je to zbog njenih sposobnosti a ne iz sazaljenja!	8	4
Knjizevnik i ambasador? Welcome to BiH	11	1
svaka čast! bravo!	15	10
dugo će ko i sejdo fašist	14	10
Bravo Zeljko	14	21
Pravi bosanski hrvati su budućnost ove države i suživota a ne kamenjarski srbi kockoglavi	9	16
Hebes Komsica, ovo je ok skroz.	8	9
Svaka cast,nagradit prave ljude	8	11
hahahahahahaha pa evo taman ovo oslikava stanje nase drzave	17	3
Ovo mu je vjerovatno najpametniji politicki potez u zivotu	17	12
Nikad mi nece biti jasan izbor ambasadora kod nas.Da li se diplomatski protokoli usput uce,da li postoji neko predznanje koje treba osoba da ima ukoliko zeli da postane ambasador,predstavnik drzave? Ili je samo bitno stranacka karta, uz duzno postovanje prema gospodji, pisanje knjiga i diplomatija su dva svijeta, al dobro, dobrodosli u Bosnu i Hercegovinu.	35	2
Zeljko je majstro populizma i demagogije	28	12
I ampicilin za škutore.	9	15
Zena super,sve ok,samo papci sad laju,drago mi je da se jedete od muke,papci jedni	23	19
Ova baš lijepa	5	11
Hvala onome ko ju je izabrao i predlozio. Nema sumnje, da ce biti najbolji predstavnik nase zemlje u diplomatiji.	30	14
boli me qurac za uhljebljenje neke nebitne umjetnice na nebitnu ambasadorsku funkciju.	20	16
biti mimo ovakvog svijeta je stvar mentalne higijene 🙂	19	2
tri livade ostaše na šanku, pijem, pobro, žalim prijedorčanku 🎵🎶🍻	7	0
Cimni praljkovacu na moj racun... pocasti i raju... ;)	1	7
Svaka čast za g. Mlinarević! I nek ne otvara ničija pisma zapečaćena i neće biti bruke ko sa pojedinim ambasadorkama BiH!	10	12
Konačno nešto pametno od Željke Komšića.	15	18
Pa Bog te vidio. Odoh i ja svoje muke i tegobe iznijeti u javnost pa da i mene imenuju barem za konzula.	24	34
@ReinaR Ne do BOg nikome. A vjeruj, nakon njenih intervjua i fotografjia mnoge žene su spašene. Goaspodar da te sačuva od bilo kakve bolesti. Amin	13	5
Da nije smješno bilo bi žalosno😂😂😂 Uljeb al do sad najveći....kad se sjetim šta je sve pisala🤦‍♀️🤦‍♀️🤦‍♀️	26	37
Voljela sam je dok je pljuvala Covica, ali je trebala ostati van politike. Ovako je postala jos samo jos jedan uhljeb.	21	28
Super pravi izbor.	30	14
pa dobro... barem je pismena	48	11
Ušutkana.	20	13
Pametna odluka. Pametna žena.	37	16
Žena od čelika, svaka čast !	388	67
@kurkokitic e moj kurko, ova zena osim sto je izvrsna spisateljica, stalno podize svijest o karcinomu dojke, pise veoma inspirativno i ohrabrujuce, kud ces veceg razloga da bude tu gdje su je predlozili? mislim da tvitovi nemaju veze sa ovim, vec njena zivotna prica i licnost koja je izvrsna za motiviranje ljudi	51	29
@licorne ajde ti predloži nekoga? stvar je aktivizma i utjecaja, bolje ona nego neki moron	9	12
@Morphodidius Najveći šljam. Što reći o ženi koja odvojila jednog čovjeka od njegovog dijeta i drugog čovjeka od njegove obitelji sa troje djece... i sve to pišući o njekoj velikoj ljubavi i poštenju. A svoju bolest je razglasila na sva zvona kao da je ona jedina koja ima taj problem.	13	9
divno, najzaslužnije imenovanje,zena koja ce dostojno predstavljati BiH!	30	10
Komsic bar nece izabrati ambasadora BiH koji će raditi protiv vlastite države	4067	59
@ kurkokitic ...eh tebe.. pa svi uovoj drzavi i vi u vasoj tamo paradrzavi imaju istu taktiku: Svi se bore protiv nekog zla nebili ih to zlo primjetilo i privuklo sebi!	26	11
@kurkokitic Odakle ti znas kakve su njene reference osim sto si procitao na klixu ! Samo sebe blamiras bez potrebe.	63	37
@kurkokitic ... ne baš svi ali ogromna večina to dokazuje na svakodnevnim primjerima, svi nešto morališu da bi se kasnije prodali za funkciju ili Ministarstvo. Samo što je u RS-u završena jedna priča oko razbijanja opozicije u Federaciji je počela ova druga ko će biti partner SDA mladoj. Nakon moralisanja da neće niko, sad se svi kolebaju i komešaju ko će se više dodvoriti.	10	1
@Bratko Martina Mlinarević: Otići iz BiH postalo je pitanje časti prema samome sebi	36	3
Covicevi citavu Cesku poznaju 😆😆😀	5	5
@Bratko čestitike. Još jedan stručni kadar Sejde Komšića...ubila se za diplomaciju..uništila obitelj dvama muškarcima	5	12
Šta kaže Dragan na to?	12	8
A zato se ona slikala polu-gola prije neki dan ....	16	39
Prvi normalan potez u zadnjih 10 godina	29	10
