comment	vote_up	vote_down
ja konto zainteresovani za zakon o porijeklu imovina diploma i ratnih priznanja...a ono jok...	284	20
Bakire, haram ti bilo! Ko je vlast u Kaknju?! Ferid Sinan iz Kaknja dvadeset godina živi po rudarskim jamama.Iako je pet puta ranjen u ratu on živi od tuđe milostinje. Nema socijalnu pomoć niti bilo kakvu penziju. https://youtu.be/q_sMcPZEd9g	27	4
Mene strah njih kad ih vidim.Znam koliko BiH mogu sjebati	2	0
posteno treba mijenjati resore. primjerice da sda uzme financije, hdz ministarstvo za raseljena lica i izbjeglice, boračko ministarstvo u federaciji, vanjske poslove u VM i tako da izmijenjaju...	0	1
Koji je ovaj Izetbegović konj! Umjesto da traži mjesto za glavnog tužitelja i time kontrolise čitavu državu on traži šipak .Ovako svako će da radi šta hoće a niko da podigne optužnicu a kamo li da neko se osudi za kontra djelovanje protiv BiH .	2	1
Budesli popustio ustasama onda se kupi i idi iz ove zemlje onda si izdajnik 100%	9	2
@teksviler vec jeste ...njega zanima BiH ko i seselja	0	0
Pa izgubili su zlatnu koku zvanu Kanton Sarajevo,pa je opcija Ministarstvo finansija na meti.Valja poplacati sve ove uhljebe po selendrama.	9	4
Ima Bakero iskustva iz trezora tokom rata i zato mu je bitno da iskusna osoba bude ministar finansija:)	12	2
Baki ako ponovo prepustis finansije HDZ-u , do sada si im davao nemilice, molim te proglasi bosnjake najugrozenim u BiH , gore i od sejdica i fincija	9	0
Bitno je da su pare blizu???? A pravosudje, MUP, tuzilastvo i sve ostalo o cemu ovisimo svi ostali, to je nevazno. Pa majku mu milu ima li i jedan duse od vas?	9	1
Poruka je jasna. Dajte vi meni pare, pa možete da radite šta hoćete.	9	2
Vrijeme je da druga spodoba zamjeni vampira Bevandu	6	2
Majku vam jebbem lopovsku, i vama, i hdz-u. Samo vam je bitno da mozete krasti, narod ko jebbe	18	2
Da ne bude rata ako Bookir bude ministar financija jer poredjenja radi kad je bio u trezoru rat je bio pa ljufi treba neko pare sacuvati za unuke i zetove kao sto je i njegov babo hihi	7	3
Da neće udarit porez kladionicama? Zna li Krivousti za ovo?	6	2
Ministarstvo vanjskih poslova dati UZP-ovcima, pa ti si pokiso po glavi!	12	2
@samoradnik ma misli ima para a uzp-eovci ebu i nevade	1	0
@samoradnik čuj , predugo su držali minstarstvo finansija , sad im treba dati vanjsku politiku .. ha,ha..	2	0
UZP že se teško moči nakon 25 godina moći odreći trezora, kockarnica i kladionica...	10	1
Zelje i pozdravi samo to! Nece se ova vlast formirat nikada i uzp-ovci zele isto pa ucjenjivanje opet a sve po nama sitnoj buraniji.pola godine od izbora a sve na pocetku.fuj	9	4
ugini!	11	4
Esselamu alejkum.	6	6
Trenutni zamjenik, Mirsad Žuga, novi ministar finansija...😊😊	9	3
Bakire, haram ti bilo! Ko je vlast u Kaknju?! Ferid Sinan iz Kaknja dvadeset godina živi po rudarskim jamama.Iako je pet puta ranjen u ratu on živi od tuđe milostinje. Nema socijalnu pomoć niti bilo kakvu penziju. https://youtu.be/q_sMcPZEd9g	27	4
Maaaaaaaarrrrrrrsssssssssss	12	7
Zini pas dobit	7	1
koji kreten. ko si ti da komebtarisea dom naroda kad je sda izabrla po 4 delegata iz snsd i hdz. mrs bagro	19	5
riđobradi želi ministarstvo trezora	22	5
ima dobrog iskustva	15	3
Naravno da se lova kontroliše i pljačka.	8	0
SDA je zainteresovana za nastavak pljačke države i građana BiH!	28	10
Čovjek taman pomisli evo ga krenuo prema realnom svijetu i realnom i racionalnom razmišljanju kad ono .... katastrofa !!!! Zine g.zica kod bakira čim se ukaže i najmanja prilika. E sad će da blati , pa da mjauče i plače i na kraju da laže kako nije to tako mislio kada je pričao i pristajao na dogovore. A za svo to vrijeme ide VM u tehničkom mandatu i odugovlačenje formiranja novog saziva VM. Kakav prevarant !!!!	16	1
Ja sam zainteresovan za socijalu koja kasni već 25 dana, a ujedno je zadnja od tri koliko su mi po zakonu pripale prije doživotnog napuštanja Bakirove babovine	10	1
Ko bi reko da je Zmaj od Trezora zainteresiran za Ministarstvo finansija?	18	6
SDA svugdje zainteresovana gdje su pare.	13	9
Hahahaha to isto da lisici das da cuva kokosinjac	21	6
Ahahah majku li vam lopovsku poturcenu	8	8
Osim za Ministarstvo finansija na državnom nivou, zainteresovani su za Ministarstvo vanjskih poslova.Naveo je da je predugo HDZ držao Ministarstvo finansija i da je vrijeme da sada preuzmu Ministarstvo vanjskih poslova BiH. ---- Tko je ovdje autoru članka pisao ovo? U principu izgleda kako je Komšićev zadatak da preuzme ministarstvo vanjskih poslova obzirom da je već imenovao sve hrvate na pozicije koje ih pripadaju a financije da dadne SDA i time se riješili i hrvati i sve?	3	2
Uzeti HDZ'u finansije, ma kada bi to i SDA bila!!!!!!!!!!!!!!!!!!!!!!!!	13	6
Tako je,dat rok i ako neko	3	2
Bakir bi opet u trezor	13	8
Bake zna sa parama	10	2
Jok eto ja sam zainteresiran ebali mame	3	3
Ološu, prepolovio si nam naciju. Sjaši više bolan ! Pusti omladini da izvuče zemlju sa dna na koje ste nas doveli.	27	7
Pa zar niste dovoljno pokrali	15	4
muko moja...	9	2
A dobices izbjeglice i boravka pitanja. Za to si se i borio.	17	2
MVP Bakire, MVP! Ministarstvo Pravde, Bakire! Mani se Finansija, niste vi za toga!	9	7
Što to tako stidljivo Bake? Izgubio jadan samopouzdanje čekajući na birou.	7	5
Došlo iz guzice u glavu. Držali ministarstvo za izbjeglice na federalnom nivou, napravili i obnovili kišu Božiju vikendica podobnim glasačima. E, ne lezi vraže, sad se tu više nema šta očopat, al ćemo junački otet sad HDZ-u ministarstvo finansija, na državnom,a Boga mi i na federalnom nivou. Grohotom se smijem. I kaže suživot. Ma jok, nisu se za raspodjelu novca dogovorili, a lako će fotelje i pozicije. Sjetio se bošnjo finansija. Aaauuuuu	19	10
Malo ti vrece zlata i milioni od donacija majmune	20	6
ma jok eto uzečeš ministarstvo civilnih poslova	6	1
Ovo birati 30 godina. Pa jbte..	18	4
Jasta Bake,uzmi im finansije,latini samo se guraju gdje je lova	18	2
"kao što bi zapjevala grupa abba ""mani mani"""	7	2
Trebao si pederu Vjekoslavu Bevandi i Jerki Miličević prepustiti ministarstvo financija,jer oni su tu rođeni kao da je njihova babovina.	22	5
ja mislio ti zainteresovan zainteresovan da rjesis problem nezaposlenosti I odlaska omladine	23	2
Kakvi depresivni i napaceni pogledi,niko nece sa nama,a mi moramo javnosti prezentirati nesto nerealno,mozda upali za ovaj vikend,pa do slijedeceg.....snaci cemo se....@@sretno svima,zna li iko sta treba da radi?	10	4
I konačno organizirajte okupljanje pripadnika i simpatizera Zelenih beretki na granici Bosne i Hercegovine tj. mostu Mehmed paše Sokolovića da dušmani vide da nas ima i da se zlo nikada neće i nesmije zaboraviti. Obavezno unutar Armije BiH ili unutar specijalnih policijskih	7	5
otkud ovoliko ovih masnih smrdonja na ovom portalu?	10	3
Konačno jedan pravi korak od strane SDA ,bravoooooo	16	8
Napokon,došo tobe !	19	1
ma nemoj...	3	7
Hajde Bakire, pokazi zube a moze i proteza ali trazi i dobij....	12	2
Zanima ih samo lova	4	2
Bravo, nakon skoro 30 godina . Brzo ragovao	16	0
Hoće Bake nazad kući. Tj u trezor.	18	6
dojadili ste vise ne lazite vise narod	11	2
Prvoborac iz trezora bi samo oko para, zlata, vreca....	17	4
@ZlatanKasikovic kasika..	3	2
Neka postavi Mektića😂😂😂😂😂😂	13	0
Kaze razocarani zastupnicima stranaka koje su odbile osuditi cetnicko orgijanje u Visegradu. Ipak, ta sitnica nece biti prepreka saradnji s tim strankama	13	2
daba sve kad cete hdz dati sve sto trazi radi vlasti, da nebi vas i hdz neko malo procealjo u zadnjih 20 godina. Kad dode to fatace se narod za glavu ali daba sve kad ne gleda veliki dio ljudi u BIH dalje od nosa	5	3
treba promijenit ime ministarstva financija u - ministarstvo vrećarenja. ministar financija = vrećbaša.	6	1
Bakire jarane, vidi ti se na licu, da je i tebi nakon skoro 30 god. dosadila ta ubleha od SDA!! Budi jednom musko u zivotu ,rastjeraj tu tvoju gomilu nesposobnih guzolizaca i grebatora,ugasi svjetlo za sobom, i hallal ti za sve godine ublehe !!!	18	7
Tko ima resurse financije, uticaj na pravo, taj jemocan.Do sada je to imao HDZ.Izetbegovic je svatio,vedjet cemo hoce li odustati.Bude li podkleknuo, izgubit ce povjerenje i vlast.Da sam ja njegov savjetnik, dao bi mu to do znanja.On je tu u vlasti, bilo nam krivo ili ne, bolje je da on preuzme, Ministarstvo finansija,Ministarstvo vanjskih poslova, Ministarstvo pravde i Ministarstvo civilnih poslova.	15	5
Bevanda na cjedilu...	14	1
Bakir je zainteresovan za trezor i za vreće zlata.	10	7
Bakir smrdi.	6	12
Samo revolucija i kratki postupak.	13	2
Izgleda Kirba bar malo došao tobe...	12	3
Dzaba ti interes kad ode Hrvatima kao i uvijek do sada!	11	7
Bakire sve si im dao, dao si im pravosudje u ruke. Opet ces uzeti premijersku poziciju za nas i predsjedavajucu u domu te dati Vrhovni sud i Fed. tuz srbima i hrvatima....pa ces pricati pricu. Ko ima malo mozga zna da ste svi u talu. 😉	22	2
Pare pare pokreću svijet, POLITIKU i nogomet! Parama mogu kupiti sve: POLITIČARE, novine, sudije!	12	0
Jel to da znaju bolje krast?	4	1
Bilo je i vrijeme. Ja sam očekivao da će ove godine HDZ-BIH za Ministra financija/finansija predložiti Zdravka Marića.	5	1
Bakire da ti ne bude na kraju po onoj pjesmi: Ja je pito i ona mi dala pa je posle i miliciju zvala...! Upao si naivno medzu ova druga dva hodtaplera kojima u glavnom uvijek dajes a nista ne dobivas.	6	6
zar nisu finansije pripale tvom guznom haveru dodiku	3	5
Bošnjo i financije 😂😂😂😂😂	13	11
💚💚💚SDA💚💚💚	7	14
"ovo je za rubriku ""vjerovali ili ne""."	16	3
divi salke nazv'o selam i odma ga u predsjednistvo stranke, pa imal iko obrazovaniji od omladine, idi salko sudi k1 radi nesto sto znas	9	0
Da mu dadnes sve pare svijeta vidio bi Bosnjake ko vjersku skupinu ,a pitanja drzavnosti su ajnstajnovski pojmovi.	8	0
Zar nisi Dosta pokrao Bakire Izetbegovicu, hoces opet na izvor kesa?	12	7
Hahahahhahahaha ovo neka novost?	9	1
Da više hapas jel😂😂😂 i covic hoće financije	6	3
Ma nemojte..dajte ba HDZ i finansije i ministarstvo pravde..kad su ljudi upravljali svih ovih godina COVIC ce zaplakati ako mu to uzmete...	19	2
Treba popustit HDZ-u, da ih ne majorizujemo stalno, nisu ljudi nikad bili.	6	3
propast ce bih.	6	9
Sad ce ovi iz BH bloka opet pisati mailove negodovanja!!	1	8
Mene kao Bošnjaka je sramota što me predstavlja ovaj i njemu slični. :)	19	6
Trezoraš na djelu opet	14	1
Zato sto je to krava muzara znaju mafijasi sve i peceni i vareni	4	2
otkud sad to, zar finansije oduvijek nisu u hdz-ove, po ustavu?	5	5
Ma nije moguce, ja mislio za ministarstvo ekologije🤣	18	0
Para buši gdje burgija stane .... go bake go	7	1
Kad su finansije u pitanju bake je tu prvi.	9	3
samo tako, ko drzi ekonomijo drzi SVE	6	3
ja konto zainteresovani za zakon o porijeklu imovina diploma i ratnih priznanja...a ono jok...	284	20
Kvislinzi vi cete sve prodat Covicu i Dodiku!	9	5
moj bake nikad ti dosta....	4	4
Eto treba HDZ-u	1	1
