comment	vote_up	vote_down
Biti ce rata ljudi,nije ovo nista bezveze!!!!	282	25
Znaci, ovaj idiot iznosi javno vrlo opasne stvari, a sad se vidi da ni sacim konkretnim to ne moze potvrditi. Nesposobna muslimanska nakupina si sama zabija noz u ledja. Prvo uniste svojih 20% BiH, a onda pokusavaju lopticu prebaciti na druge	169	58
@red_moon Idiot u tvom komentaru se može primjeniti samo na tebe. Izloženi su mnogobrojni dokazi, kako u izjavama tako i u novinarskom istraživanju. A tih 20% koje pominješ samo ukazuje potrebu za tvoje doškolovanje.	6	4
@BulevarStroja Da staneš pred Muniru, poklopio bi se k'o Vučić.	5	2
Dakle o tom se svercu radi unutar RS-a o hrvatsko srpskoj koalicij zbog koga je svirepo ubijen mladic iz Banja Luke David Dragicevic.	1	1
Sve je trulo u državi Danskoj....i bolesno....	3	0
Ministar Mektić je potpuno upravu, inače neiživljeni pe*eri hrvati ne bi podigli ovoliku prašinu pokušavajući negirati podvalu koju su pripremali. Latinima ne treba vjerovati niti kada vam kažu 'dobar dan', jer to ne misle. Koliki god cincari i šumadija bili srbi imaju 'pošteniji' i otvoreniji neprijateljski nastup. Zar Bošnjake nije ništa naučila '93. i nož u ledja, sa srbima dakle uvijek na oprezu, sa hrvatima uvijek na oprezu x 100 !	10	1
Jedan od rijetkih iz nacionalnih stranaka prema kome, posebno zbog zadnjih sedmicu dana, zaista imam ogroman respekt. Svak ati cast Mekticu, ljudino.	13	9
znaci moze se raditi sa falsifikovanim diplomama??? Gordana tome kriva? Pa kako vas nije sramota?	6	3
Čuj ministar sigurnosti, pa poredi teroriste s kokošima.. Nema šta, sigurnost na nivou.	9	5
Ovaj Mektić je bolestan lik. Uskoro ostaje bez funkcije, biti će izbačen na ulicu pa je prolupao	14	11
čitam komentare udruženo šku-torsko lešinarskih i turskih pravslavaca iz četničkog Smrdistana predvođeni Đeriz Bulevarom i njihovim nasrtajima na poštenog čovjeka Mektića.. Ne čudi me što su se šku-tori s krša našli pogođenim ali što se ovi čokoladno pravoslavni turci osjećaju ugroženim ovim potezom.. Pa propade plan šatorskog pjevača sa koride i traktoriste sa goveđom glavom...	15	12
Da li vi u BiH stvarno vjerujete u ovu priču?	22	3
Ovaj lik je u više navrata izazivao smutnju i pomutnju raznoraznim izjavama počev od toga da u BiH nema ilegalnih uljeza kada ih je bilo nekoliko hiljada, pa onda da ih ima 300 kad ih je bilo blizu 15.000, pa onda kad je zakuhao dolje u onaj hrvatski kanton, tad je Mekta prićao o državnom udaru, a kada je uljeze natovario bišćanima, bilo je jasno da je BiH u krizi, a da je on sve to podcijenuo. I evo sada.Samo valja imati dokaze, šuplja ne pije vode na sudu.	23	9
Mektic je sramota za BiH i izgledom i pamecu....kad takova seljacina moze bit ministar bilo cega onda je to vrlo jasan znak da je drzavi dosao kraj ili se kraj blizi....bez trunke dokaza i argumenata ide optuzivati zemlju koja je btw najveci ulagac u BiH sto znaci samo da je isti Mektic kotacic raspada iste.	21	21
I kako na kraju balade Mektić dokaza svoje navode, osim što je rekao da ga učiteljica mrzi ???	21	7
Hapsi Mekticu Hapsi	23	5
Zašto bi bio problem dostaviti diplome,aaaaa Mektiću.mene kad pitaju diplomu s ponosom je donesem	22	6
Dakle, ispadne da predsjednica Hrvatske može govoriti nesitine i lagati ljudima? Sada kada je ovo objavljeno, bilo istina ili ne, onda smo svi najgori... kakve glupe konstatacije hrvatski političara.	13	16
Treba se preupitati kako su ovi došli na vrhovne fotelje u tužilaštvu. Nisu zaslužni tog položaja i pozicije ni moralno ni edukativno zato bi se trebalo razmisliti o njihovim smjenama.	18	1
U siriji su slično ovako započeli rat dovedu vehabije namjerno naprave par problema preko te družine pa ih onda ganjaju ali u državi u kojoj žele da ostvare svoje koriste zna se da je centar vehabija u beču zna se i ko ih već godinama šalje u bosnu i zašto islamska zajednica je neoprezna u startu ih je trebala zabraniti nije kasno ni sad neke islamske zemlje su ih zabranile i nema problema	12	5
Prisluškivači i bubice rade svoj posao,sve se brzo i lako sazna. Novinari najčešće sami prisluškuju prate a onda kad saznaju od toga prave priču i aferu. Ko novinarima daje ovlaštenja da tendeciozno prate ljude,prikupljaju podatke o njima-ko im daje povjerljive podatke?! Kako neko može prisluškivati i pratiti nepoznatu osobu?	11	6
bez jakog sudstva i tuzilastva nema ni druzave. to znaju kako unutrasnji tako i vanjski neprijatelji ove zemlje i to dobro koriste.	16	2
samo mosnje se mogu nadat da iz ovakve glave nesto pametno izlazi...	20	8
"""Ovaj čovjek je neuništiv"" (ko to tamo...)"	8	0
Ovaj se isto tako prije godinu i po čudom čudio o kakvim migrantima se priča a danas niko ne zna koliko ih zapravo ima...	22	4
Podrska Draganu Mekticu!	23	26
svaka tebi cast	14	17
Manipulatorska posla politicara BiH	24	8
NAS I RUSA 300 MILIONA A BALIJA POLA KAMIONA !! SA- TZ -ZE 18% Dzamahirije DOLINA MUMIJEVIH	5	21
draganeeeeee	7	2
Mektic, jedan od rijetkih koji se bori za svoju državu BiH, ali dzavoli takodje rade svoje, rasturaju ovu malu državicu ko gladni psi macku	23	24
Mi u BH Bloku mirno spavamo dok je SDA na prvoj liniji,...hahahaaa	13	5
Mektic cirkusant svakako, vrlo brzo, ode na smetljiste istorije, ovim si pokusava dati jos malo mediske paznje	28	30
znači ni D od dokaza, nego čovjek je čuo, neko mu reko, pričalo se na kafi, jebote tko nama vodi policiju...	38	21
Samo bi trebao imati dokaze za ovo laprdanje.	25	10
iz Srbije, s ljubavlju... investicije, milijarde, nova radna mjesta, nek cvjeta hiljadu cvjetova, i tako to... :))) https://www.danas.rs/ekonomija/ne-daju-im-da-idu-u-toalet-teraju-ih-da-nose-pelene/	10	5
@osmond SRBIJA JE SHUPAK PLANETE	9	3
Tužilaštvo treba odmah da izda naredbu da se Mato Đaković uhapsi te da mu se odredi mjera pritvora. Ovo za šta se sumnjiči je izuzetno opasna aktivnost po cijelu državu BiH i njegova uloga treba biti ispitana. Također treba protjerati hrvatskog konzula iz BiH. Dodatnu ulogu MUP-a RS u pokušaju ilegalnog naoružavanja pripadnika selefijskog pokreta treba u cjelosti ispitati.	16	9
Istina je garant jer gledajuci ovdje na komentarima Klixa histeriju ovih srbijanskih i hrvatskih placenika/komentatora, pojacan nivo uvreda i pljuvanja Bošnjaka i napade sve bude jasno	25	12
Čitajte samo redmoon, bulevar......sve placenicki ološ.Histerija masovna, pravdaju nesposobnost stranih agencija.Nemoć, pa pljuvanje masovno	15	5
@071SA NAJOCITIJI ZNAK DA SE RADI O ISTINI JE NAPAD PRAVOSLAVNIH I KATOLICKIH (NEMOCNIH) BOTOVA ;)	8	4
Mektiću kralju!!!	31	11
@BulevarStroja KAKO SE BORIS ZA IZLAZ NA MORE A CRNA GORA TE ODHEBE,KAKO SE BORIS ZA VELIKU SRBIJU A OSTANES BEZ KOSOVA,KAKO SVAKE GODINE NAJAVLJUJES REFERENDUM ZA SUMSKU A DOBIJES K I T D I TD :D	20	5
@Izudaraga A GLUPA PRAVOSLAVNA VLASINA UPOREDJUJE IZLAZ NA MORE SA REDUKCIJAMA VODE.PRAVI VLASKI MORON ;)	11	4
Kamen spoticanja ? Spotiču kockiglavi od HZHB.	7	6
Me-ke-ke-ke-ktić, kad se nešto istražuje to se drži u tajnosti da se ne omete istraga. Ali ne, ovo je jeftini medijski pokušaj da se napakosti Hrvatskoj zbog aktivnosti njenih dužnosnika oko raskrinkavanja podlih smicalica muslimanskih bh političara	76	20
@_ja_ hajde neka nam BiH službe iznesu podatak koliko ima aktivnih terorista u BiH, onih koji vrbuju indoktriniraju i bilo kako pomažu sve aktivnosti. Znamo da su uvezani i da im je svima zajedničko vodstvo.	14	7
KOS je fitriran u sve stranke i vjerske institucije ,zato je važno da dodju mladi političari koji nisu pod hipotekom.	16	2
A gradjani BiH trebaju da imaju povjerenja u stranacke agencije? Ili u takvog nesposobnog ministra koji jos nema plan za ocekivanih 60 000 migranata?	55	4
Nije to njegov posao , brkaš lončiće jaro.	2	2
@SamoTo Cijela vlast je tako koncipirana. Samo prebacuju odgovornosti na druge.	1	0
I kakve su to spijunske afere? Prvo u novine pa onda u istragu. Pa valjda dok traje istraga, informacije ne bi trebale da cure.	17	5
Pa se cudite sto ste u vicevima!Cuj selefije vozao Mato Dakovic a hrvatska sluzba ih naoruzavala , ha, ha...Zasto bi ih naoruzavala?Zato da bi se potvrdile kolindine rijeci!Ha, ha, ha....Imaju selefije i u bih kupit oruzje kakvo god hoce i gdje god hoce!Zasto bi ga uvozili iz hrvatske?Pa ovo je komedija nad komedijama...ha,ha...	111	24
@stern nimeni nema logike. dovoljno je dokazat sta rade, nemoraju i oni lichno naoruzavat, koja glupost.	10	4
@stern pa nisi baš promoćuran. Razlog Kolindine izjave je nastojanje da se Hrvatska bolje pozicionira kod ustavne reforme i kasnije ubrzanja podjele BiH. Nastoji se prikazati da BiH ne može da funkcioniše i da je opasna pa da je treba nestati. Naravno, ništa od toga.	8	8
"Ovdje je glavno pitanje da li su gradjani Bosne i Hercegovine sigurni jer su ""selefije naoruzane""? Jesu li ih razoruzali organi bezbjednosti BiH? Jesu li gradjani sigurni?"	73	6
Znaci, ovaj idiot iznosi javno vrlo opasne stvari, a sad se vidi da ni sacim konkretnim to ne moze potvrditi. Nesposobna muslimanska nakupina si sama zabija noz u ledja. Prvo uniste svojih 20% BiH, a onda pokusavaju lopticu prebaciti na druge	169	58
@red_moon Idiot u tvom komentaru se može primjeniti samo na tebe. Izloženi su mnogobrojni dokazi, kako u izjavama tako i u novinarskom istraživanju. A tih 20% koje pominješ samo ukazuje potrebu za tvoje doškolovanje.	6	4
@BulevarStroja Da staneš pred Muniru, poklopio bi se k'o Vučić.	5	2
Biti ce rata ljudi,nije ovo nista bezveze!!!!	282	25
Agenti BIA-e ne sliaze sa portala umanjuju spinuju izjednačavaju manipulušu...treba ublažiti odjek srpskog terorizma i glavnog inspiratora Karadžića.	7	1
Svaka vast za Mektica i Avdica. Ovako se brani drzava BiH a ne kao uhljebi SDA kriminalci koji na sve sto se proric drzave BiH suti i onda iz pastete izlete da daju svoj komentar kad se vec sve zna. Skidam kapu Mekticu i Avdicu, vi ste danasnji prave patriote ove zemlje, vise ate uradili za ovu drzavu nego SDA za 30 godina svoje vladavine!	10	8
Dobre naocale ... imal gdje kupiti ovakve za jedno 2 joje da se pocastim.. 😁	5	0
Velika sreća pa je MEKTA MINISTAR sigurnosti ne daj Bože da je neki iz SDA sad bi imali nekoliko terorističkih akcija.A ustaša Kolinda bi zadovoljno trljala ruke oko trećeg. Budite se Dobri Bošnjani ...	26	9
@JakraljTvrtko Ne zaboravite da su i MUDŽAHEDINI stizali preko Crocije i erceg bosne i to 93god. kad su najžešći sukobi bili sa UZP-ovcima. Tako da je sve ovo 1 000 000% TAČNO!!!	22	9
Samo ih kaRaj Mekticu !!	9	2
"""Da imamo deset hiljada kokoši, pa to bi se vidjelo"", kazao je Mektić. Za faktor istu rečenicu jučer Ljubo Ćesić Rojs :"	7	1
"""Pa kako bi država uopće postojala i funkcionirala da je tako. Službe, kao što su u Hrvatskoj i BiH, znale bi da ima 10.000 takvih osoba. Pa da je 10.000 kokoši, znalo bi se, a ne radikaliziranih osoba. To su iskonstruirali ovi koji misle da bi na taj način napredovali u službi. Rekao sam šefici da to nije tačno, a ona je odšutjela – kazao je Ćesić. https://faktor.ba/vijest/rojs-bandic-spletkari-u-bih-kolindi-sam-rekao-da-prica-o-10000-ekstremista-nije-tacna/22944"	6	0
Mektiću, pohvataj četnike u Višegradu ne svadaj bosnjački i hrtatski narod više!	13	7
tužilaštvo je nadležno za to, Mektić radi po nalogu tužilaštva kontas? a tužilaštvo je korumpirano	4	1
@branitelj eto kao nama treba Mektić da nas posvađa, zar nam nije dovoljan Čovke Krivousti, koji na twitteru osuđujue, a u Domu Naroda blokira osudu? Marš ručat kamenja	4	2
@BulevarStroja „Srbi su narod bez zakona i bez vere. To je narod razbojnika i terorista” bila je izjava Žaka Širaka, tadašnjeg predsednika Francuske, za ručkom, juna 1995. povodom sastanka Šefova vlada država članica EU.	7	2
u prici oko nadolazeceg vala migranata, povrata ISIL-ovaca u BIH postrojavanje Ravnopgorskih četničkog šljama pa treba balans i na trecoj strani cuj bandic vrbuje vehabije da unose oruzja u medžlise kako bi to isto poslije bilo pronadjeno i logicno odmah te iste vehabije bi bile pohapsene, malo pre prenaivna konstrukcija. Kakav je to vehabija kojeg krscanin moze vrbovat?poznajući mektica cisto sumnjam da od ovog ima ista. pa znamo ko je na čelu OSA-e, gdje je OSA i SIPA	9	3
@ MusaTheOutlaw Ma ne znam za Mektica, ali Srbi imaju entitet, a Bosnjaci i Hrvati su skupa u drugom entitetu pa se sad vrse pritisci na Hrvate od kojih nema nista. Jer BiH je oduvijek bila i katolicka zemlja i to Zapad nikad nece dozvoliti, nece dozvoliti da katolika nestane na ovom prostoru.	11	4
@politika.je pa neće nestat, eno ih u Hrvatskoj, a bogami u zadnje vrijeme i po NJmeačkoj koliko hoćeš	3	2
Nadigao galamu bez ijednog dokaza. Mekticu, u javnost se izlazi tek kad imas cime pokriti izjave.	11	5
Mektić, do sada najbolji ministar na ovoj funkciji	12	6
Tako je Mekta kralju RAZOTKRIJ SVE UZP-ovce od Tužilaštva, sudstva pa nadalje.	22	6
Dok se dodik ne javlja, ovo je onda ozbiljna i .ebena igra, iza koje stoje dokazi, a to izgleda nije sve, kako je Mektic srbin koji je bio u ratu, on zna sta rat donosi i sta bi se desilo,.ko bi pobjegao a ko ratovao a ovdje se sve cini na podjeli BIH s tim da nije moguca bez rata .. tako da je mektic veci srbin od vucica i mileta... medjunarodna zajednica sa Inzkom nista ne cini godinama, doveli su dodika i sad cute,	2	4
Mektic je tuziteljstvo polozio sa izjavama i dokazima... formiraju predmete sada, a notorne cinjenice pred njima...	1	3
@SarahH Aha, po tebi znaci Hrvatska im dala lovu i oni (selefije) pristali unijeti oruzje u neki mesdzid. I sutra ako bude zlocina, bit ce Hrvatska kriva. Koje su to fore? Valjda treba izaci na teren i pretraziti gdje sve ima oruzja i oduzeti to sve. A ne baviti se supljim pricama. Nije kriv onaj koji ubija ili potencijalni ubica (a ko ima oruzje to jeste) nego onaj ko mu je navodno dao oruzje. Svasta.	9	5
@politika.je jesi ti gloooop ili se praviš? Predsjednica izjavila da ovdje ima 10000 terorista. Naravno čista glupost, osim ako je mislila na Višegradske četnike. SOA krenula sa operacijom da na silu naštima da je predsjednica u pravu. Daj selefijama oružje, pa ih onda hapsi. OSA raskirnkala, dala novinaru da objavi. Hrvatska će da popuši dobro zbog ovoga.	4	4
U svemu ovom ja bih jos uvijek ponajvise vjerovao Mekticu. Tadicka je po meni osobno dokazani BL rezimski poltron bas kao sto je za SDA Burzicka. Mato Djakovic izuzetno sposobon novinar i realan dok je bio na tv OBN. Odlaskom na rezimsku tv u BL izgubio je dosta toga od sebe pa i poveliki % prethodno stecenog reitinga.	2	7
Pisam se u usta ovim minusarima jer sam bio u pravu jer je TZ MUP potvrdio da je vozio zadnju godinu ovo auto sa diplomatskim tablicama a evo i ovaj dansnji monstrum je bio 2016 godine u genocidnoj tvorevini vjerojatno na obuki za ovo danasnje.	0	0
new york times: https://www.nytimes.com/2019/03/14/world/europe/bosnia-croatia-terrorism.html	1	1
new york times: https://www.nytimes.com/2019/03/14/world/europe/bosnia-croatia-terrorism.html?rref=collection%2Ftimestopic%2FBosnia%20and%20Herzegovina&action=click&contentCollection=world®ion=stream&module=stream_unit&version=latest&contentPlacement=1&pgtype=collection	0	1
hahahha	1	0
Na čemu je ovaj Mektić.	17	7
jbsk , pitaš na ćemu je ovaj Mektić, pa zar nevidiš da udara po svemu što je negativno a i sestra ti je udarena.	4	4
"Ovaj lik je mudonja😂Respect,cega se lik dosjetio""Deset hiljada kokosi""😂😂😂"	9	6
@manaGer ma kakav on to je od glupog rojsa cuo.	5	0
"Meni i dalje nije jasno sto su ""selefije"" pristale da se naoruzavaju od ""sluzbenog Zagreba""?"	14	3
Para vrti gdje burgija neće, zato su išli i u Siriju!	3	4
@politika.je tacno. Mektic srpski igrac, zavadja katolike i muslimane	10	6
Slabo je ova vijest imala odijeka na zapadu, hrvatski lobisti očito su uradili dobar posao. Da je bilo obratno, već bi bili na svim naslovnicama u Europi.	4	11
@hamo.bonaparte new york times jutros:; https://www.nytimes.com/2019/03/14/world/europe/bosnia-croatia-terrorism.html?rref=collection%2Ftimestopic%2FBosnia%20and%20Herzegovina&action=click&contentCollection=world®ion=stream&module=stream_unit&version=latest&contentPlacement=1&pgtype=collection	1	1
Obični spin od dešavanja u Višegradu.	6	6
"Oprezno ... da ne bude poslije po Mektiću drvlje i kamenje ... HRT više uopće ne izvještava o ovom slučaju a Plenković cijeli slučaj naziva prosto - ""mektićeve kreativne konstrukcije"". Čekamo očitovanje OSA."	16	5
@Opera dobro on smije ista reci, kad se uzme u obzir da SNSD i HDZ drze BiH pravosudje u svojim rukama!!!!	4	3
novinar kaze na kraju ako se to potvrdi onda ce to biti najveća spijunska afera. ok slazem se. A sta ako se to ne potvrdi sta ce onda biti??? bit ce ujo vuk magarca kao i obicno. čime je nesto konkretnim rezultiralo mekticevo mekanje i valjanje gluposti??? mozda se na ovaj nacin obracunava sa kresicem zamjenikom ministra (koji je školovani KOS-ovac i izumio oblast sigurnosti za mektića) ....	8	8
Naravno kada neko otkrije nečiju Zavjeru , onda su svi nišani Mafije okrenuti prema njemu. Sami ću reči BRAVO ZA GOSPODINA MEKTIĆA i neka zna da ga svi normalni ljudi podržavaju jer se bori za istinu i pravdu, a oni su u ogromnoj večini.	3	1
Mekticu ja mislim da si ti pametan covjek i da ces ovo uspjeti izgurati do kraja!	8	7
Pa gdje si @sampta, nema te odavno 😊	0	0
Znaci i Tadicka je skutorka ja vazda mislio da je srpkinja,a u stvari to je isto😂	15	3
Reci, ministre, da je izmišljena priča, znamo mi svi za nepotizam u našem društvu, al nisi ti išao u Tužiteljstvo radi toga ko je gdje zaposlen. Pravi šarlatan, koji samo laje okolo, šta si uradio za Bihać, četiri godine pričaš o kontroli krize a nikad ništa nisi uradio osim što si postao ovisan o mikrofonu.	9	16
@Heep Bihac moze samo ocekivat uspjeh ako se izvedu OS BiH na istocnu granicu	3	1
Postenog i realnog covjeka svi ce prihvatit .. Svaka cast Mekticu i ostalim ljudima koji pricaju istinu bez obzira koje vjere bili , ipak to daje nadu postenim ljudima.	22	3
BiH je drzava sa ogranicenim suverenitetom koju su potkopali nacionalisti svih boja za tudje interese. SDA je sastavni dio te price.	1	1
"HDZ- ova politika prema BiH je konstanta, samo se metod mijenja. Gradjani BiH moraju da se zastite od takvih unutarnjih i spoljnih neprijatelja koji na temelju nacionalnih podjela i floskule o ""predstavljanju naroda"" zele sa dominiraju BiH i na kraju je podijele. BiH se ne brani i ne razvija forsiranjem etno podjela sto rade etno strankw sa svih strana."	11	3
@simao21 SDA se mora vratiti borbi za drzavu ,a Bake je sveo izjavama I radom na vjerski teferic	1	0
"Politika SDA nije dorasla konceptu BiH kao drzave. To je jedan mahalski pristup koji kordinirano djeluje sa ostalim etnickim strankama na uspostavljanju dominacije etno elita kroz paradigmu ""predstavljanja naroda"" i time razara bilo kakvu sansu za demokratizaciju javnog prostora sto je osnova za normalnu drzavu"	7	0
Bravo! Vrlo precizno!	3	0
Ovo samo ucmali I neefikasni OHR moze pokrenuti,a dotle cemo gledat ravnogorce I kamenjarce kako rade o glavi bh gradjaninu bez obzira na narodnost.	9	2
MEKTIĆA ZA PREDSJEDNIKA.	14	4
Mektic je u pravu sto se tice tuzilastva. Tuzilastvo je najkorumpiraniji segment drustva.	19	6
@preludezalude nije bez razloga što kamenjar traži ministarstvo pravosuđa	3	1
@posteniBosnjanin O tome ti pričam. Lik je bez dlake na jeziku. Govori šta misli i kako jeste, te nije podložan ničijoj retorici	8	3
Nažalost tužiteljica štiti Hrvatsku a ne svoju domovinu BIH Polako, stat ćemo im u kraj	17	6
Ne mozes stat na kraj jednom entitetu u drzavi, a di ces stat na kraj jednom konst. narodu koji ima drugu drzavu iza sebe😂	10	5
Eto vam Bake eto vam i komšić i birajte koga god želite, dajte nam samo Mektića...	6	3
Ne daj se Mekta💪🏻	21	4
Svaka cast Mekticu.	25	2
to MEKETIĆU sad če da vam hebemo nanu..mislio si da skrene š pozornost sa četničkog dernečenja...	7	10
Vidi mu cigare	5	11
Ja kao musliman, Bosnjak, vidim postenijeg i normalnijeg covjeka u ovom Draganu Metkicu od citavog SDA i ostalih tzv. pro-bosnjackih i pravednih stranki. Nama ne trebaju nacionalisticki poltroni, ljudi koji koriste religiju da rade sta hoce, nama trebaju posteni i pravedni insani. svaka cast mekticu.	37	14
@JosJedanBezVatreRLD Bake je izjavama I radom sveo SDA na vjerski teferic	3	1
Plus treba nam Država sa svim nezavisnim Institucijama što znači nezavisne Zakonodavna, Izvršna i Sudska Vlast a nakon toga niko te neće pitati da li si “pošten” ili ne i još bi otvorio vrata i nezavisnom novinarstvu, biznisu i nezavisnim ljudima koji bi se u slobodnom vremenu bavili folklorom i iz hobija istraživali svoja porijekla i čudili se rezultatima istraživanja i sve to pretvorili u zabavu i viceve!	4	0
Mektić mangup... bra'o majstore👏	29	6
Samo nek se zna... otkucalo Mekticu... em mibostekao mandat... em ce u zatvor	15	29
Pokaži zube onom uhljebu od žene Gordani Tadić. Podrska Mektiću	55	11
mekticu prvo napravi reviziju ko je sve uhljebljen u osa...mozda vec pojedinci iz iste rade za susjedne drzave...	12	15
"""Da imamo deset hiljada kokoški, pa to bi se vidjelo"". Ovakav insan nam treba i na nekoj većoj i jačoj poziciji"	7	13
@Riktas da fakat, ne znam koji su mu motivi ali bolji je za Bosnu od pola patriota	63	10
@Riktas BiH je drzava sa ogranicenim suverenitetom koju su potkopali nacionalisti svih boja za tudje interese. SDA je sastavni dio te price.	7	1
@Riktas to je prije njega vec izjavio rojs za faktor, tako da meeeektic nije u stanju ni takvu recenicu da smisli.	3	2
@Riktas .......Kolindi treba dati jaja, koliko mogu da snesu 10.000 kokoši i jednog pevca GRATIS.	7	3
Mektic je nesposoban od kad se rodio, sačekali smo da ko zna koji broj migranata pređe granicu da bi nešto poduzimali.	15	47
Dragane STISNI IH UZ ZID, legendo.	40	11
Kralj	34	6
