comment	vote_up	vote_down
kokice sok i uzivanje😁	549	85
A blago tebi kad ti to satifakciju pruža.. Svaka cast	190	149
@dofu0507 Ako bog da sami ce se poklati NATO ce samo doci da ocisti teren osiromasenim uranom.	93	77
A u cemu taco uzivas? Sto se ljudi bore protiv nepotizma, diktature, nacionalizma ili sto im njihov trud ne urodi plodom?	130	24
"@dofu0507 ali nike tako ""vatreno"" kao prije par godina u federaciji 😂🤣. Samo ti pasi"	18	19
@dofu0507 Izgleda da je kod tebe u drzavi sve potaman. Zato sjedi i uzivaj jer vi nemate jajca da ovakvo nesto uradite.	63	16
Preveslaće njih Vučko, živi bili pa vidjeli..	27	8
@tengu Upravo, svaka cast ljudima..	13	4
@dofu0507 Ma ja, dok se normalan narod bori za sebe Bosnji je dobro, samo nek je komsiji lose. Bosnjo moj, ne zivi se od mrznje...	43	6
@dofu0507 Pametni ljudi, umjesto da se mi BOSANCI I HERCEGOVCI ugledamo na njih, mi se sladimo, a kod nas 2x gora situacija. Heee glupi narode!	26	4
Tako je.....ti zivis u sredjenoj drzavi sve ti je potaman....zato nam i seru po glavama jer znaju dacemo sta god urade mi sjesti ipojesti kokice uz staru “Ma samo nek se ne puca”	6	0
@dofu0507 jer smo mi Švicarska za njih i nemamo nikakvih problema jelde? :)	3	0
Sloboda za Sandžak,Vojvodinu i Preševsku dolinu istu kao suverenom Kosovu	277	42
@Alibaba12345 BEOGRAD CE BITI ALBANSKI, SERB AND ORTODOX FREE	25	21
Ne damo te zemljo srpska dusmanima vise, doslo vreme sada Vucko istoriju pise.	0	0
Boško Obradović, koji je ekstremna desinica, negira genocid u Srebrenici, zalaze se za prikljucenje RS Srbiji, zalaze se za povratak obaveznog vojnickog roka i negira gradjanska prava gay osobama. Znaci losiji od Vucica.	1	1
Evropske države priznaju Đilasa za predsjednika a uskoro nestanak struje i humanitarna pomoc	3	1
Govnjiva motka je iz raja izasla :)	0	0
nešto tipa naših protesta prije par godina, na kraju opet status quo	2	0
Hajte kucama necete mirnim protestima nista promjenuti , pustite coj'ka na miru da igra saha ... :-)	2	0
a kazu 1200, 1400 ljudi brojali ih .... lazu sami sebe mediji u srbiji... svi mediji su u srbiji pokazali poslusnost Vodji Aci pa na vijest komentare pise par ljudi iz redakcije, skoro svi isti, ista matrica .. TROLOVI....	5	2
Nikada nisam bio na strani koju Amerika ,,kao,,podrzava.Ta strana gubi drzavu i sve u njoj.Sami vidite sta je Amerika uradila od Islamskog svijeta i drzava.	2	0
Ode Vučko u skokovima	4	1
Ja opozicije - najveci radikal Obradovic vodi proteste. Srbi nikada nisu priznavali proevropsku politiku i evropske vrijednosti. Kada god se neki srpski progresivni politicar pojavio, oni su ga skinuli / ubili. Oni su taoci sopstvenih mitova i lazi vec stoljecima. Ko god se pojavi da revidira te lazi i mitove, te povuce Srbe naprijed - taj je glavu izgubio - od Obrenovica, Karadjordja do Djindjica.	12	4
- Časlav Klonimirović - ubijen - Jovan Vladimir - ubijen - Veliki Župan Stefan Nemanja - abdicirao - Kralj Stefan Prvovenčan - abdicirao - Kralj Radoslav - svrgnut - Kralj Uroš I - svrgnut - Kralj Dragutin - svrgnut - Kralj Stefan Dečanski - svrgnut i ubijen - Car Dušan - iznenada umro - Car Uroš - po legendi ubijen - Knez Lazar - poginuo - Jovan Nenad - ubijen	9	2
U Srbiji izgleda i ima ljudi sa demokratskom sviješću za razliku od BejHa.	5	5
Napad na presednika Vucica je drzavni udar na Srbiju. Podrska za presednika iz Republike Srpske	4	3
Jeli se oglasio bulevar fekalistanac iz manjeg BH entiteta	10	3
jjjjebeni ovi sendvičari	1	0
đikanistan se raspada	6	6
Ranije je slobo imao taktiku da kada se dodje do ove tačke započne nove ratove! On je imao JNA a da vidimo vučka šta će upotrijebiti ako uopšte ima aduta! Moj prijedlog mu je da napiše “tri nova pisma” i neka bježi tamo gdje bi još mogao pobjeći! Sve možeš lagati koliko hoćeš ali neće moći dokle si zamislio da hoćeš!	4	3
lahko je njima blokirat , haj ti blokiraj troglavu azdahu.	2	0
da se hoce medjusobno svi porokat, to bi bilo najbolje	1	2
Gotov je!	4	2
bili i ostali naopaki.	1	3
zavrsice Pavle kao David..	0	1
....Vas ne sme niko da bije....	8	0
Od ovog nema ništa. ..sve je ovo Vučićevo maslo)))	1	3
svaki post koji napišeš protiv onog sda kopileta diplomatic2000 bude izbrisan.. je.bem li mu mater sdaovsku	5	0
Sta hoce ovi salabajzeri , tjeraj to gasom da vidimo koliko su zagrijani.	1	0
Dubioza kolektiv najjači bend ovih prostora.	4	0
Da li bi mogo preko druga koji radi u MUP Bijeljina,da ja iz BiH saznam gdje zivi jedna osoba u HR ?	2	2
Ko god letio visoko, jednog dana padne.	14	2
da se u sarajevu organizuju demonstracije protiv bakira, on bi izasao sa saopstenjem da iza toga stoje beograd i banjaluka i onda bi vjerni sda glasaci sa alifakovca, vratnika i bistrika krenuli da se fizicki obracunaju sa demonstrantima	15	1
Nisam ja te sreće, da gradjanski rat izbije.	2	2
Idemo i mi rušiti ove svoje, a hoću ku.ac, lakše mi je ovako tipkati i srkat kahvu po vazda	9	0
@patriot90 pa kad moze svaki samo sebi praviti , ne vidim logiku u zajednickom rusenju😁	0	0
Ovako isto i nasa SDP, opozicija koje nema nigdje u svijetu.	2	1
Sto je najzalosnije, sutra da su izbori Vucic bi opet pobjedio, kao i Plenkovic, kao i nase troglavno vodstvo	14	0
He he. Je' ovo Pero Deformero podigao revoluciju?	0	0
Run pussy-mouth!! RUN!!	2	0
Gricka Mujo kospice a Suljo jede kokice i plaho mu gledat srsnj u smrdiji dok Fatu Bakir kara uzduz i poprijeko a dje ta kaHva vela halve ????	4	4
Cuj EPA-EFE auuu	0	0
Dok god podrzavaju nakaradnu tvorevinu rs mogu da se kolju do sutra....da sve spale sto vrijedi u tom bg	4	5
Europa nece dopustiti pad Vucica iz dva razloga: treba zavrsiti predaju Kosova i do kraja pretvoriti Srbiju u europski bordel gdje ce muskarci biti jeftina radna snaga u niskotehnoloskim pogonima EU firmi, a zene jeftine kurtizane.	3	2
U Srbiji uvijek neki vjetar jako zapuše, kod nas u BiH šućurAllahu vazda povjetarac..	8	2
Cuj,slusaju Dobiozu na protestima,sutra ce pederko vucic reci sa su muslimani upravljali demonstracijema,ali i posle vucica ce doci novi vucic	2	3
Samo bošnjo sabura dok mu ga sda ne vadi iz pr.kna.	10	1
pasaluk vam mjera bio	6	8
oooo Turci cemu se nadate sa takvim mozgovima 😂😂😂	7	2
Samo pucajte minuse vi na klixu sve znate bolje od nekog ko zivi u krugu ovi desavanja pisete o 100 hiljada protestanata a ima ih max hiljadu jedna ulica samo zatvorena ja vam od srca zelim da vas Bakir i Sda posalju sve u grob ziveo VUCIC zivela SRBIJA	9	8
..... izađi iz svog krmetnjaka , idi brani hraljavog , lako je tipkati , majmune !	4	2
Ti mala da cutis idi pusi ku.ac to jedino i znas ja svog predsednika cu da branim ako bude trebalo	1	2
Bice razbijenih glava a prva ce biti od ovog Ljoticevca iz Cacka	3	1
Izdrzi predsjedniče.	6	8
Jedino smo mi zadovoljni sa nasim predjsednicima, vladom i svim ostalim parazitima kojo zive na nas racun! Ulice prazne, Trebevic krcat!	11	0
"KOD NASKE U BOSNI I HERCEGOVINI """" NAROD ZNA """" !!!!!"	4	2
boljeg filma nema...😁 kokice i s familijom gledat....osjecaj dobar 😉	6	7
osim kantonalnih budžetlija, malo ko je u usk ostao.	4	0
Bravo, tako se to radi, a ne koji kod nas...nekih ni repom. Svima dobro	6	1
JESU LI RASTURILI VUCICA ZLOCINCA😁	6	2
Stigla vlahe više puta ponovljena kletva : Dabogda se o sebi zabavili !!	10	9
@SilenceDoogood A kad ćeš ti o sebi da se zabaviš ?	1	1
Neka se malo pozabave samim sobom 🙂	5	0
Sto su neprijatelji orgazmicni !	2	2
Sta hoce taj narod???	3	1
Dobar dan slobodni Beograde !!! Gradjani Beograda su ustali protiv diktature nacionalizma,,fasizma,gluposti,tajkuna,kupljenih diploma,nezaposlenosti, siromastva,korupcije, stranackog zaposljavanja,egzodusa naroda,nepravde !	8	4
Ustali su hurac. Milion% da ce doci jos gori. Nismo ni mi vise budale	6	1
..... vlah je vlah ! ..... bitno da se rokaju , da vascijeki svijet vidi koja su pogan !	2	3
Jeli treba vucic da ode da bi dosao ovaj bosko obradovic? Nema lijeka za srbiju. To je fasisticka zemlja 100%. Bila, trenutno je to i ostace. Ustanicka zemlja. Samo protesti!	11	1
Poslace Lukac jake snage iz BL dobro tuku babe i djecu😂	8	0
Arapsko proljeće !!	9	0
najbolje da se pobiju, gradjanski rat im je najbolja opcija	7	3
Joj budale cuj opkoljen,sleti helikopter na krov i ode labelo dje oce cojk..	3	0
U svakom slučaju samo gori može doći tamo na vlast.	9	1
Da dodje ludi Bosko sve nesrbe bi pobio ili smjestio u logore..	4	0
Ajde bre šta je bre ovo, previše mirno, ajde bre komšije ćete se potepati ili ne	4	9
Pocelo je samo Bosnjo bleji zadovoljan sto ne puca	9	2
@toni123 Bošnje uživaju, ne uznemiravaj	5	0
. UVIJEK BOSNA i HERCEGOVINA MORA DA UCHI I CHERILICU I LATINICU OD SRBIJE !!! AL DZABA BOLJE KAHVA I NOVI VIC O SULJI I MUJI !!!!	3	1
Poslacemo, vam Dodika Covica gratis da se snjima bocite.	7	0
Smrt Srbiji!	4	7
Ovo je neka dobra komedija. Samo navalite	6	1
Zasto vam ne valja predsednik u zadnji 20 godina nisu se otvarale fabrike skole se nisu gradile samo se kralo u zadnjoj godini otvoreno je preko 20 fabrika skola hiljade i hiljade radni mesta sirom nase lepe Srbije i glupanima to ne valja sinoc su porazbijali zgradu RTS povecao je plate i penzije ovo nisu normalni protesti ovo je sve placeno sve razvaljuju povredjuju policiju naoruzani huligani kako su ovako glupi nikad bolje nije bilo u Srbiji nikad lepse nije bilo	0	7
Zar ne postoje izbori ?? Ja nisam neki ljubitelj Vučića niti mi je taj čovjek drag ili simpatičan isto kao što to nije Bakir ali ako većina ljudi izabere tog Bakira, moje je ili da to poštujem ili da se selim... Ista stvar je i za Vučića...	2	5
Vec vidim rastrgace ga nepismena dzikanska sirotinja. Proci ce ko Gadafi.	5	3
Ide Mile Ronhil chapter letom da drzi Aleksandra za rukicu, naravno sve o trosku njegovih pristalica	7	0
E narode narode i ovi sto su blokirali nisu nista bolji od Vucica vjerovatno i gori . Onaj iz Kremana bi u pravu vodje Srbije sve gori od goreg nema ko da vodi normalan narod	1	0
UMENEMI U SARAJEVU su uvijek bili DEMOkratichni da vlast lupa toljagom po glavi svaki dan i svaog KAhVA I SAMO DA ne puca !!	2	0
Ko je sad kriv? Nisu bosnjaci, hrvati?	5	0
A gledaj ekipe Đilas, Jeremić, Obradović, još veća mafija ud Vučka.	5	1
i koga ce oni staviti da im vlada? nemaju nikog normalnog..zasto su glasali za Vucica nedavno pa ga skidaju..	4	0
Nista od ovog. Puno vise je zadojenih fanatika fashista na balkanu. Sto se vidi i iz komentara na klixu	3	0
.... Vučić... smrdo četnički. ....Laktaško prase na aparatima....	6	0
samo neka je steta maksimalna..svejedno ko ce pobijediti u ovome	3	1
To ti je sve isto, četnici i jedni drugi	7	0
Otvorio hladno pivce, narezo meze i lagano uživancija.	3	1
- kada su to nekom ex YU državom vladala demokratska načela i vladavina prava? - kada su se akademskim raspravama vodile polemike i rešavala pitanja? - kada je vlast pitala gradjane za bilo kojji zakone koji je usvajala? - kada su ti zakoni vredili za sve gradjane? Ako vlast ne pita gradjane za zakone onda to nije njihova država. Onda je potpuno svejedno ko je upravnik ili okupator. Sve dok je u većina gradjana neuka ne verujem protestima.	3	0
Bez veze,Vucic je umjerenija I pametnija opcija od ovih djilkoša	3	0
A koji su naši, za koga da navijamo	4	0
E narode narode i ovi sto su blokirali nisu nista bolji od Vucica vjerovatno i gori . Onaj iz Kremana bi u pravu vodje Srbije sve gori od goreg nema ko da vodi normalan narod	4	1
Proljeće je, kreće opet na više strana	4	0
možeš mislit sad dileme kod srba iz BIH i sdp-a ne znaju koga da podrže ne znaju na što će ovo izaći !!!	4	0
Tesko je ostaviti ili ti odreci se moci nakon toliko godina vladanja.. porobljavanja vojske, policije,.medija, pravosudja i svega i svacega ... DJL Srbija Aco V.... da se brinuo o srbiji kao zemlji bez zadiranja i urusavanja BIH ..bio bi mozda upamcen kao radikal koji ae okrenuo demokraciji, ovako je samo vojvoda Aco rusi BIH a osobito srbiju, jer ce doci na red i vojvodina i sandjak itd itd	5	0
Pa toooo majstori	3	0
autentični srbi ganjaju vlahe oko ulaza/izlaza tvornice pakla, te se pokadkad sagnu/nagnu jedan drugom(kacavenda style)	5	0
BRAVO!!!	3	0
vlastiti fašizam pokucao na vlastita vrata. ma ko da se s tim igrao morao je i sam platiti i platiće cijenu prije ili kasnije, bez izuzetka. nažalost uvijek najviše nastradaju oni najbolji i najneviniji.	5	0
Ma nema od ovoga ništa. Malo zabave za narod i ipet sve po starom. Vucic se prenemaze i glumi a narod, vecina, aplaudira.	6	0
E moj pičkousti pakuj stvari na traktor i drž se milenceta	7	0
U Srbiji problemi, zdravo!	8	0
poznato mi je ovo hmmmm	5	0
Sahranite piqkoustog pravo u zgradi.. nije on predsjednik, vec diktator modernog doba.. gdje se to jos postaje multimilionerom baveci se politikom osim na balkanu.. na zapadu ogromna vecina poslova u administraciji je placena duplo manje od ljudi u privatnom sektoru.. a i mi isto tako trebamo sa svojim ‘poliqitama’ rjesit jednom za svagda...	10	1
Zabavite se o sebi da odahnu komsije	8	1
Mile picqica se ne oglasava😂	6	0
Dobrodosli u republiku Srbiju il ce da vas opljackaju ili ce da vas ubiju..	5	0
Nepismena sirotinja, blago ovim iz Islamske Republike Srpske sto su se spasili bijede i žive ovdje na zapadu. Ovih dana otvaram humanitarnu organizaciju za udomljavanje sirotinje iz ove rupe zvana Srbije.	7	1
Hajmo i mi raja opkoliti nasu vlast ko ce vazda cuclati nargilu i biti na klixu🤣	8	1
Kmeee..precednice Wolfcicu pripojiii naam RS kmeee da ponovo budemo velika Srbija kmee, nece nama Drina biti kapija hehe..jel vama zao ovih polupismenih traktorista sa karpata ? :((	4	0
