comment	vote_up	vote_down
Svaka čast C.Ronaldu i mnogim dobrim igračima, ali jedan je LEO MESSI ! Najbolji na svijetu, tata igrice !!	487	46
Sve jasno citav stadion na nogama.. Golman Betisa mase glavom, suvisno.je bilo sta reci	198	6
@istinailaz28 nemoj tako a coban nosonja iz susjdestva :):):)	24	7
@istinailaz28 , jedina stvar na svijetu za koju sigurno možete reći i tvrditi da ste u pravu je MESSI JE NAJVEĆI SVIH VREMANA,sve ostalo je dvojbeno ili višedvojbeno,..	10	1
Da li ima smisla više porediti ovog čovjeka s bilo kim drugim??	288	10
@IzaOblaka Ima ako si retardirani nargilaš bošnjo ili oni nigerijanci po facebooku	97	14
@IzaOblaka nemoj tako nosonja je bolji :):):)	8	7
Pa Suarezov dribling vazi 4	5	0
Odavno se on igra ne samo sa Betisom. ;)	7	0
Zanimljivo je koliko napaćenim Bošnjacima smeta Modrićeva zlatna lopta. Tema je Messi yebbem vas u Sarajevo, poslijeratno, seljačko, istočnobosansko, papansko.	8	28
A vi dajte opet onom nosonji nagrade	3	1
Toti je u karijeri 'zabio' ovih lobova sa 16m ne zna se broj... Ne sjecam se da li je ikad iko to ovako hvalio! ali eto svaka cast leo.	4	41
pošto mnogi imaju slabo pamćenje, evo golova CR7- https://m.youtube.com/watch?v=2sJKHj2YVHc	6	27
jedan je CR7!!!!!!!!!!!!!!!!!!	12	62
@shomy10 Srećom je samo jedan. Zamisli užasa da ima još jedan takav napuhanu zalizani padavičar. Ko bi to trpio? 😂 😂 😂	21	3
@shomy10 Pazi koliko ga hvalis, mogao bi i tebe silovati.	4	0
moze Georgina samo	0	1
svaka cast za patuljka ali CR7 je davao jos spektakularnije golove- iz makazica i to fenomenalne, Meso gotovo nikad, pa golovi CR7 iz velike udaljenosti, Meso daje do 20m i to je to. jedan je CR7 NAJVEĆI!!!!!!!!!!!!!!!!!!!!!	15	78
@shomy10 što dokazuje da će se Messilica približiti igraču na metar, osramotiti ga, pa onda njegovog kolegu, pa još jednog i onda dati gol. Kako si čo'eče plitak, veličina se ogleda u timskom radu, jer gle čuda, fudbal je timski sport jazavac mali. Kad je tvoj idol otišao iz Reala, postoje igrači koji su se rasteretili.. Što li?	4	2
@shomy10 Najveci silovatelj u svijetu fudbala.	2	0
@k0mbinator1ka inteligentan si kao pozadina tvog messice, ne kapiras da vas malo zajebavam. a ronaldo je u realu imao i asistencije i bio timski igrac, ali je bio i sebican, nema veze njemu se oprasta.	0	0
@wardruna😄	0	0
Nisi ti Messi normalan!	31	3
Otac!	25	1
Svaka čast ali Ahmetoviću nije ni do koljena...	67	3
Djaba mu sve ako CR7 uzme jos jednu LP...	12	61
Može uzet još 101, nikad mu neće ni prismrditi.	46	7
Modric je osvojio zlatnu loptu a mesi je osvoji lopatu hahahaha	8	43
hahahahahahahahahahahahahahahahahahahahaha	2	7
Kakav mesji za njega je icardi ko avion	5	35
On nije JEDAN OD najboljih, covjek je NAJBOLJI. Inmessionante!	55	7
after Cristiano!	4	33
Licno sam uvijek vise simpatisao C. Ronalda ali cast mi je sto zivim u doba ovog carobnjaka. Najbolji svih vremena!!!	58	7
Igrač koji ništa nije osvojio sa svojom reprezentacijom ne može biti najbolji igrač svih vremena. Nema logike.	14	97
@Orion Jarane, fudbal je timski sport. Razmisli malo. Igrač igra sa još 10 svojih kolega na terenu. Zamisli da je Pele bio Koreanac. Da li bi to značilo da bi sa istim fudbalskim sposobnostima bio lošiji igrač nego kad je Brazilac. Nigdje logike.	44	8
@Orion Pa kod glupana sa KLIXA je sve moguce, pa cak COPA AMERICA 2 x finale izgubio protiv velesile Chile hahahahahaha	9	25
@Orion Asim Zec dao ljepši gol sa veće udaljenosti i po toj logici je i on najbolji igrač svih vremena. Logika jednog prosječnog klix amatera koji od jučer prati fudbal. :)	9	26
Susjedi razvalili Argentinu na SP. Mesi se nije vidio.	8	31
Pele sa Brazilom osvojio 3 SP, Maradona prešao čitavu englesku odbranu, Zidane dao dva gola Brazilu u finalu, a Mesi popušio od Hrvata.	11	34
@Orion KAKVA TI JE TO LOGIKA ?????	10	7
Da bi bio najbolji svih vremena, treba biti najbolji na najvecoj smotri fudbala. A tu se Mesi nije dokazao.	6	22
I onda tvrdnja da je najbolji svih vremena. Kao taj je gledao utakmice Pelea, Garince, Puskasa, Maradone, Krojfa...., ma hajte molim vas.	4	20
Fulio penal protiv Islanda.	2	17
Majstor daj boze da mu i mali bude ovakav majstor kao on.	27	3
Sta kazete, Messi jedan od najboljih? Koliko i sta vam treba jos pokazati da je NAJBOLJI? Da je sam na vrhu, da postoji Messi pa velika praznina i onda dodju igraci kao eto nek bude ronaldo koji samo ceka kolege da mu namjeste loptu pa da je on samo ugura u go i slicni	43	6
@ferrachi HAHAHHA HAHAHAA HAHAHAHHA pokrij se dekom pls, sta napisa lik i ostao ipak ziv.. HAHHAH HAHAHA HAHAHHAH	1	7
G O A T	30	5
Smijesno je porediti bilo koga sa ovim majstorom	48	3
@ZgemboAdislic46 nemoj tako coban iz susjedstva je bolji :):))	6	1
Nece se ovo rodit narednih bar 30 do 50 godina.	60	3
GOAT	31	4
Na Ronaldov hat-trik odgovorio sa 5 golova i 2 asistencije u dvije utakmice.... Samo da pokaže ko je boss.	65	3
@DamirS A imao je protivnike vrh jel de hahahaha P.S. Gdje je taj najveci bio recimo protiv Hrvatske kada im je bitna utakmica bila? gdjeeeee? Svi znamo kako je zavrsilo... :-)))	8	36
Smijesno je porediti hat-trick atleticu sa betisom. Plus koliki je pritisak bio u utakmici juve atletico. Drazi mi je messi ali ovo zadnjih godina sto ronaldo radi je nevjerovatno.. 3 LP i Euro	3	25
Najbolji ikad! Picasso fudbala!	61	5
.budi se messi polako zakazo je ona dva el klasika	4	25
Brutalno, nerealno, kakav kralj..	50	2
Bogami, biti navijac Barce je bilo lijepo veceras. Ne zna se koji od 4 gola je ljepši.	52	2
Perfekcija	33	1
Najbolji igrač svih vremena.	64	3
Uvijek sam govorio, kad Messi ode, Barca ce biti na nivou Getafea	9	24
Leo Messi najveci svih vremena, ZAKUCAO OVU IGRICU, ono sta on moze s loptom ne moze niti jedan igrac ni sada ni prije njegovog rodjenja !! Onako kako on zabija golove mi ne mozemo ni na Amater nivou na Play Stationu. Laku noc !!	85	4
a ronaldo???	0	4
Treci gol... Odakle covjeku inspiracija deceniju i kusur?	67	2
Pa šta je ovo sunce ti, lik se šprda s fudbalom. Čista umjetnost.	63	3
Mislim da je dovoljno kad ti se protivnicki navijaci klanjaju	66	3
Svaka čast C.Ronaldu i mnogim dobrim igračima, ali jedan je LEO MESSI ! Najbolji na svijetu, tata igrice !!	487	46
Sve jasno citav stadion na nogama.. Golman Betisa mase glavom, suvisno.je bilo sta reci	198	6
@istinailaz28 nemoj tako a coban nosonja iz susjdestva :):):)	24	7
@istinailaz28 , jedina stvar na svijetu za koju sigurno možete reći i tvrditi da ste u pravu je MESSI JE NAJVEĆI SVIH VREMANA,sve ostalo je dvojbeno ili višedvojbeno,..	10	1
Sve rijeci su suvisne za ovog lika, nevjervatan igrac a i golman se sjebao kad mu je treci gol dao	44	0
ma daj Leo vrati se na svoju planetu...🎓🎓👑👑	47	0
Da li ima smisla više porediti ovog čovjeka s bilo kim drugim??	288	10
@IzaOblaka Ima ako si retardirani nargilaš bošnjo ili oni nigerijanci po facebooku	97	14
@IzaOblaka nemoj tako nosonja je bolji :):):)	8	7
