comment	vote_up	vote_down
"Jednog dana, kada BiH bude u EU, ćevapi u Norveškoj moraju biti istog kvaliteta i ukusa kao u ""Zmaju""."	113	14
@redrox - Norveska nije u EU	102	5
Onda je do mene.	4	1
Desi se 😂	2	0
Rekli su iz Nutelle da je to u redu: spustit ce kvalitet i u drugim zemljama.	15	1
Zanimljivo je da će se ovo važiti samo za zemlje EU-a. Znači da će svo smeće da se izvozi na tzv. Zapadni Balkan. Sa druge strane kada se izvozi nešto u EU traže se ispune maksimalni standardi. Čista diskriminacija. Ovo je odlična vijest za Madžare, Čehe, Slovake, Hrvate itd. Sa druge strane loša vijest za BiH, Crnu Goru, Srbiju, Makedoniju i Albaniju jer će svi ti proizvodi lošije kvalitete da završe na rafovima navedenih država.	1	0
Ili ti ga u prevodu guraj otpad u Bosnu i region. Pisaj po sirotinji.	0	0
zasto je nutella na naslovnici?	0	0
Dobra Maza Agrokomercova gori 😀	9	1
Mi cemo jesti smece zbog djikana, jer zbog njih ne mozemo u EU	2	6
@djutureBa Nisu ti đikani krivi što ova vukojebina nikada neće u EU.. Kriva je kriminalno,mafijaška organizacija imena sda	5	2
Ništa sve što nevalja u Bosnu uvezite nece se bacit!	2	0
Ma evrokrem je zakon, i kriska sa kajmakom.	5	1
Da bi ganjao premium cijenu proizvoda kao što je Nutella moraš da imaš godine ulaganja u tržište marketing proizvodnju potrošace a i tada je upitno da li ces da uspijes...Dok kod nas izbace Mazu kažu bosanski proizvod a njemačka cijena (skuplja od Nutelle) marketing 0 bodova ali eto premium cijena...ne ide to bas tako (nema bolje ništa od Kinder Lade by the way)	4	5
i ne trebate nam, imamo MAZU 1000x bolju	10	7
Ništa bez Eurokrema. Nutella ni blizu.	5	6
E cuj eurokrem. Pored toliko namaza sad ti eurokrem spominjes. Kad probas druge vidis da je eurokrem smece.	3	3
@psg Probao sam, ni blizu. Kad nešto probam, onda mi nije glavni kriterij odakle roba dolazi.	2	1
Uz nase znanje I tehnologiju mozemo samo medju domorodce ,treba kineze dovest u BiH I hvatat sto se moze	2	0
Ima pasa osim šarova....	2	0
Iskreno receno, BiH nije samostalna ni sto se tice hrane -- stalno ovdje seljaci kake da treba bojkotirati strane proizvode (pogotovo Hrvatske) a na kraju sta mi proizvodimo da valja? Vina nemamo. Sirovi su katastrofa. Prsuta nemamo jer muslimani ga ne jedu. ako netko si moze prijustiti kvalitetnu hranu mora je kupit iz stranih zemalja.	12	3
@Sorzon - vina nemamo u smislu da ih hercegovci tj neprijatelji proizvode	1	5
Vina puna hercegovina, sireva kakvih hoces, travnicki, livanjski(najbolji), trapist. Krmetine vjerovarno ima u rsu	4	0
Ili SAM sebi sadit /: Bukvalno tako si ogranicen to je uzasno, Ajsberg jedva da imas gdje da uzmes, preliv za salatu, eto vec krece kod tako sitnica. Jedino sto stvarno imamo jako dobro meso!	1	0
Zato su nase zene pametnije, uvoze EU muzeve jer su bolljeg kvaliteta hehe	7	1
maza valja al samo ona od 30 posto ..ali je poskupa ...ovomaltine najbolji namaz	3	3
Kad pocnu tone i tone dolaziti nama ...	0	0
A svi izvan EU dobijat će, kao i do sada, smeće !!! Sav taj ekstra profit koji zarađujete na smeću koje nam prodajete potrošite u apoteci !!!	6	1
@Wahrheit, sve je to isti klinac. Istočna i zapadna varijanta Nutelle (ili drugog sličnog proizvoda, svejedno) jednako dobro debljaju, jednako dobro kvare zube, i polako ali jednako dobro vode u dijabates.	2	0
NUTELA JE ZA DEGENERIKE KOJI ZELE DA SE TRUJU	5	2
"Jednog dana, kada BiH bude u EU, ćevapi u Norveškoj moraju biti istog kvaliteta i ukusa kao u ""Zmaju""."	113	14
@redrox - Norveska nije u EU	102	5
Onda je do mene.	4	1
Desi se 😂	2	0
Kod nas ce znaci prodavati nekvalitetnu hranu. Znaci na ovim prostorima ne samo da je opasno zivjeti zbog bujanja fasizma vec i nezdravo...	7	0
Je*ala vas nutella.	12	1
@tabasco_pitt bas	2	0
Nutella iz Austrije i ova u BiH nema nikakve razlike probo sam obe po meni nema	7	6
@Arteon787 Ali obje sadrže palmino ulje.	7	0
Nutella najvece smece.Nasa Maza je zakon.	18	8
@vibrator - pa sto se Maza prodaje samo u kalifatu a Nutella u citavom svijetu?	15	9
Bojkot pekara manja prestanimo kupovati kod četnika probudimo se	14	9
Nama robu ŽNJ kvalitete, po mogućnosti kancerogenu. Hvala.	7	1
Maza bolja 5 puta	20	8
Rekli su iz Nutelle da je to u redu: spustit ce kvalitet i u drugim zemljama.	15	1
BOJKOT MANJA PEKARAMA	10	10
@mesaselimovic jbala vas više manja	5	12
Jedi govna	2	2
Sad ce svo smece, vamo na Balkan.	9	0
