comment	vote_up	vote_down
Strijeljaj! Nema poente trositi resurse na zohare!	285	29
@Realizam101 Jedino klanjem se resurse ne troše. Pitaj Ibru:))	23	6
@Realizam101 Svako zaslužuje pravedno suđenje pa čak i ISILovi teroristi	9	88
Da, ali postupak treba da se vodi pred narodnim sudom ko 1943 po istom pravilniku. Sudzenje traje 7 minuta, a presuda se izvodi ispred sudnoce javno.	68	4
Koji će nam k. Gdje je onaj klempo što je spalio pasoš.	54	2
Otkud Bošnjaci u Idilu...zar oni nisu fin neki svijet	6	1
Neka njih za vlahe i škutore i komunjare!	3	8
Ma još nam ovi fale da ih ganjamo po šumama nakon što pobiju nedužne ljude, ko i ona budala nedavno	5	1
Neka nama naše braće. Kad mogu četnici u Višegradu,što ne može i naš Ibro nazad..	4	4
Neka njih, trebaće kad četalji i avajci opet krenu..	3	3
prava neandertalska faca	3	2
koliko je samo ljudi zaginulo zbog bliskoistocnih mitova ..od srednjeg vijeka na ovamo ..ljudi se pouzdaju u nebesa a nebesa gluha slijepa i nijema ..tuga golema	6	1
treba na vrije zaklati islamsku teroristicku genocidnu krmad da nam se ne bi ponovio edin gacic	6	2
Strijeljajte govna sta ima da ih vracate ovi iz SDA dace im ordenje garant	7	1
jbg opet isto ..... https://www.youtube.com/watch?v=FNp8awQGudE&list=PLr-DL0r5569-tQ_RM9WooiAwqN1gP2_6a	1	0
metak u celo i mirni	15	0
Sad ce rec sebin sa pala 😢😂😂😂😂	3	0
öööoo turci haja hahahahahhhaa	3	0
Eto Komšiću novih glasača.	18	2
https://avaz.ba/vijesti/bih/465003/klanjali-ispred-tunela-vranduk-uprkos-kilometarskoj-koloni Uvjerite se kako ovaj pokret razorno djeluje na BH muslimane.	8	3
Zar je moguce da ce ih vratiti, treba da leze tamo gdje su se isli borit. BIH oni sigurno ne vole.	13	1
@Dr.ArslanagicLi A eto vole je ovi iz RS-a i Zapadne Hercegovine. Ne seri. Neka braće!	1	4
Ovi vehbosi su otišli u Siriju onima koje su podrzavale sve zapadne vlade. A danas, paradoksalno, njena Zapad ih ne želi. Džihadisti su tako dobri kada ruše nepozeljne vlade, samo nisu dobri kad pozele da se vrate kući - veliko je zapadno licemjerje kao i Velika Britanija.	3	10
da je vi njih nama da ih posaljemo u Potocare spakovane u tabutima!	11	4
ehh pa sta znaci dozivotna, dovedes ih u zatvor strpas ih sa nasim maloumnicima i bijedom... ovi ih nafiluju glupostima ili cak oecaju kes ili im dadnu neke kontakte.. i kako raja izlazi iz zatvora eto ti belaja...njih treba izolirati od nasih gradana... nasi ljudi su lako povodljivi...pogotovo ta bijeda ----plus ogorcenje u ljudima prema drzavi....to bi bio haos-	10	1
U kojoj vojsci si bio? Ustase,Handžar,Partizani,ArmijaBiH,Isil i jedno vrijeme u cetnicima. Sta si sad? Sad sam SDAovac,SNSDovac i HDZovac.Imam 3 nacionalnosti. Prosječna doza Slavena sa Balkana. Ko je skonto skontace.	3	5
Samo pod uslovom ako su im za ostatak zivota namjestili sobu ili u Zenici ili u Foci.Ova stoka vise ne zasluzuje slobodu.	8	2
BiH mora primiti svoje državljane, a to kakav će status imati, zavisi od okoline, odnosno da li će biti viđen kao terorista ili će biti pozivan da drži vazove po selima.	2	8
Kukavice, predati se a mogli su guziti one djevice u dzenetu. Ipak lijep ovaj zivot.	12	3
Legija ovdje dolazio i ratovao, u Srbiji komandant SAJ-a, i čega sve ne. Da nije roknuo Đinđića, bio bi božanstvo u Srbiji. Ovaj nesrećnik ratovao isto tako u drugoj zemlji, a traži mu se glava u njegovoj. Različiti aršini na djelu.	9	11
Legija bio par dana da pomogne svom narodu, a za ovog islamskog teroristu je sve jasno. Gvantanamo ili Omarska, šta ti misliš Muhmude moj ljubi te deda Ratko?	12	9
Neka dodju da opet gledamo cirkus naših manekena kako ih ganjaju po šumi )))	9	0
Odma mi glavu na panj i cjepaj burazeru.kai sto.bi i oni nama	2	4
Šta će nam koji kruac?	8	1
onda se čude zašto je HVO ratovao protiv tzv.ABih Kad su izgubili teritorij od Srba i žene i djecu poslali u hotele u Hrvatsku htjeli osnovat islamsku državu gdje žive Hrvati,to računalo i Neum osvojit,nikad sreće sa muslimanima, Mile raspisuj pa da se razilazimo	20	4
hvo je radio na uništenju bih i pripajanju hrvatskoj	9	12
Po meni ili neka im sude u Siriji ili neka ih puste da se slobodno vrate kuci. Sta god da su cinili cinili su to u drugoj drzavi i na drugom kontinentu. Na kraju krajeva kada se mnoge siledzije i krvoloci iz proslog rata slobodno setkaju tamnim vilajetom zasto nebi mogli i oni?	5	10
I onda kao Kolinda nije bila u pravu? Nisu svi muslimani islamski teroristi, ali su svi islamski teroristi muslimani	21	9
@HB_ponosna A sta tek reci za srbske teroriste koje su hrvatski teroristili tamanili ko muhe a i obratno.	8	8
Staviti pod nazor i koristiti za prljave drzavne poslove	2	4
muslimansko fašistička posla	12	5
ovo sve borci ko onaj iz njemacke 92 pobjego odavde od rata a do juce slao tuđu djecu u isil da ginu to jedino smrtna kazna moze rijesiti	14	2
Dobra mu ova referenca 'čuvao ovce kod Bilala Bosnića'. Zato je valjda radikalan, nije bilo kozica. Ili ga je Bilal iznajmio Kačavendi.	14	2
Jel vidite da je Ibro na Interpolovoj potjernici koja je izdata na zahtjev BiH? Znaci Ibraga se logicno nece vratiti kao hadzija.	15	2
@slowdown nego bos	7	0
Sve sto je bolesno treba da se lijeci ili likvidira ako nema pomoci	8	1
Tamo ubijo i klao nevine ljude i sad još nazad da ga mi hranimo, metak je jeftinij	14	3
Šteta što nema smrtne kazna. Ovo je 21. vijek, odlično je znao čemu se pridružuje.	14	2
Balince terorista gle cuda, svi se kuno da tog nema u BiH.	14	6
@Cverglan ne kune se niko u to al se kunemo da postoje spomenici ruskim placenicima iz naseg rata. Dan danas im se za penzije izdvaja iz budzeta	7	7
Nazad u BiH??? Može jedino ako će na strijeljanje ili 4 doživotne u rudniku kreka po 14 sati smjena...	14	2
jel sad svi treba da mu placamo smjestaj, grijanje 3 obroka dnevno, medicinsku skrb??....uvesti drustveno korisni rad podhitno...nek kopaju kanale idioti poput njega!!!!	22	2
tolika se frka digla radi dvojisc ljudi...mektic i crnadak samo pricaju o ovome ko da ih je stotine a imate li spisak onih koji su se borili u ukrajuni...ovu dvojicu u zatvor i ne pustati na slobodu kao ni bilala koji je vrbovao...ove klice zla ne treba sijeati ovdje nego samo u zatvor na dozivotnu	9	13
Ima spisak i svi su iz Srbije, a janjicarski teroristi su iz BiH	5	6
svi na demonstracije, sprijeciti bagru da se vrate.	13	4
Zasto ih ne vracaju u SAD i Izrael na biro za nezaposlene?! Da budu zbrinuti do sledeceg zadatka!	13	7
Kakve veze Izrael ima s tim? Vama su stvarno antisemitske teorije zavjere i glavi. Prihvati cinjenicu da su muslimani sami sebi krivi, ali najlakse je kriviti nekog drugog nego pogledati istini u lice	13	8
Poslat u Kinu ili Rusiju jer oni imaju kampove za resocijalizaciju..	13	6
Ne znam sto se pravi ovolika drama zbog par terorista,ovakvih kao oni ima u Bosni na stotine koji su u ratu ubijali,silovali,pljackali,palili, itd..dokazi leze u Hagu...	8	14
Kakvo vraćanje ??? Ovakve treba Sirija da sudi, tamo su ratovali i uništavali državu Sirijcima. Doživotni zatvor i rad na obnovi Sirije !!! Da sam al-Asad izdala bih uredbu, svaki blok i ciglu bi ovi ponovo ugradili dok sve ne obnove !!! Ako budu dobri i sve kvalitetno obnove, onda mogu kućama.....	34	2
Hvala, ne treba nam ... neka ga tamo	14	2
Ibro dobrodoso, manji si ti terorista od nasih politicara.	7	17
@IzTuzle . Welcome dječice draga! Pa kad napravite njesra i to teško, biće kako zašto? mislili smo da će se borit protiv Vlaha i Šokaca, kad oni udarili na svoje jer nismo pravi muslimani	10	3
Dobri Bosnjani 😂 Ubili se za potocare	17	12
Ženevski konvencije kao ni dodatni protokoli se ne primjenjuju na ovakve, nisu im ni trebali dopustit da se predaju, jer ovi dok su bili na vrhuncu moći nikome milost nisu pružali.	18	1
Ne trebaju nam takvi	17	1
Obrijat', okupat' i direktno u zatvor na što duže vrijeme	11	2
Ibro bolje da si osto sa svojim curama ovcama🐑😂	14	2
Zašto se dopušta teroristima koji su ratovali u Ukrajini da slobodno šeću Bosnom. Treba imati iste aršine za sve	15	20
Miran budi teroristo..! Nemoj da žica radi!	13	15
Lijepi Iraq....Juce su razmatrali da ove zarobljene kretene sve osude na smrt.Jedina postena presuda je upravo ta jer vracasti ih u maticne zemlje granici sa ludošću.	16	1
A koji ce nam klinac? Sad jos da se trose pare na njihovo sudjenje i izdrzavanje. Neka ih di su, ni za di su nisu.	22	0
hoce li s porodicom nam doci il moraju cekat spajanje?	11	1
Nije jatane nas Ibro terorista on ti je de facto umjetnik	5	4
Mahalu,sevdah Ibro nije mogo da zaboravi, Ibro nije htio para Ibro ce vazda bit fukara😂	10	2
šta je bradonje, ameri vas iz govana vade, je ki vam sad jasno za koga i cijim interesima sluzite. prestanite blatiti cistu vjeru svojim radikalnim stavovima, hocel vam napokon doci iz guzice u glavu ili su vam mozda drazi dolari koje primate sluzeci najvecim dusmanima pravde, jednakosti, istine , mira i zivota.	12	6
@fakolako Kakve veze imaju ovi sa bradonjama ili vehabijama kako ih ti nazivas? Upravo su oni prjetili Dzevadu Golosu, Safetu Kuduzovicu, Elvedinu Pezicu, Zijadu Ljakicu i ostalim bh daijama jer su upravo oni najvise odgovarali omladinu da im se ne prikljucuju.	2	0
Nek ih kurdi zagube u transportu ... to je najpostenije.	23	0
kad me jedan narkoman ranio,jbt prosao mi metak kroz butinu iz magnum 357 ja osjetio samo nesto vruce i vidim krv	2	4
Hoce li ih prvo primiti.predsjedavajuci El Mile😂	10	6
Što da ne, taman da ih Policija RS sprovede u Omarsku ili neku drugu vaspitno-popravnu ustanovu	18	6
99% domaćih Muslimana podržava ISIL i terorizam samo ne smiju svi to javno da priznaju... Od Kalesije do Sarajeva vise crne islamske zastave po selima, u sred Sarajeva i Tuzle tribine sa gostovanjima islamskih terorista...	34	20
@RatkoJeVasaSudbina jesi nekad bio u tuzli i sarajevu? Smjesan si	12	14
@RatkoJeVasaSudbina Jebali ti oni svi redom mater cetnicku. Za tebe i jesu teroristi.	4	3
i onda se netko čudi zašto ljudi neće sa balijama da žive	23	7
Jednog postaviti za ministra odbrane,a drugog za direktora SIPE🤣	10	5
U ovu drzavu nam samo bagru i bjelosvjetski sljam dovode	15	2
I sta sad sa njima? Pustiti ih tako opicene da slobodno hodaju ulicama? VB nije htjela da prihvati zenu i dijete, a mi primamo ove konjine u punoj snazi.	17	1
Riječ je o Ibri Ćufuroviću iz Donje Slapnice kod Velike Kladuše i Abdullahu Arminu Čurtu koji je prijetio reisu Kavazoviću i hafizima Dževadu Gološu i Izetu Hadžiću, predstavniku selefijske zajednice u Ošvama.	4	1
@VladikaNjegos Pogrešno si informisan od strane srbijanskih medija. Regularne vojne formacije RBiH su se borile protiv srbijanskih paravojnih i vojnih formacija u cilju sprečavanja relalizacije velikosrbijanskog SANU plana zvanog RAM.	11	14
Picvajz zivi ce biti u Bosni,evo Kolindi teme za intervjue😂😂😂	18	1
@djOdza Nek se drži Blajburga i katoličke crkve i njihovih katolibana.	9	19
Ovo treba protjerat iz bih oduzet im bih pasoše nek ostanu tamo u Siriji pod sad nadzorom bože kolika budala treba da budeš bog ti pamet oduzeo bas	19	1
Welcome dječice draga! Pa kad napravite njesra i to teško, biće kako zašto? mislili smo da će se borit protiv Vlaha i Šokaca, kad oni udarili na svoje jer nismo pravi muslimani	16	3
"Da je imao obuku za CNC, da je ovo, da je ono...mlad, zdrav čovjek, uzeo ono što mu se nudilo, treba ga rehabilitirati ali u nekoj zdravoj zemlji, ovdje može samo prenositi ono što je naučio drugima, a to je rukovanje pješačkim oružjem. Pa ako već nema druge opcije, neka služi kaznu tako što će podučavati mladiće kako se rukuje naoružanjem, treba iskoristiti ono što posjeduje, a ne samo da beskorisno leži u zatvoru i uči još gori ""zanat"".."	6	12
Imate bolji prijedlog?? Strijeljanje, davljenje i sl. zaboravite, neće se desiti!	7	9
A kad je Kolinda je upozoravala, tad se pljuvalo na nju.	28	9
Kolinda, navijačica i plesačica, kad upozorava, k'o da zove na free sex...	13	11
@Izrael, Izeda da ce se uskoro morati boriti opet.	10	3
Može, vratite ih, samo prvo suđenje.	2	2
Čuvao ovce??????E ovo je slika i prilika Bosne. U Hercegovini se ne bi nanosao te balijska glave.	19	5
Hahaha koji si ti kralj! 😂🤣😂🤣	7	0
Pa i Modrić je čuvao, doduše koze...	11	8
Mozda jeste, ali zato nine u vijestima zbog terorizma. Cijeli svijet zna za Hrvatsku zbog Modrica, a isto tako cijeli svinet zna za tzv Bosnjake zbog ovalvih terorista. Pa ti razmisli malo	19	4
Bolje bi mu bilo da je ostao cuvati ovce	7	0
Što se one tri zene tiće hajd još i nekako, ali ove ludjake nippšto vračati nazad. Čuj pretio Islamskoj zajednici i Reis Ul Ulemi. Platit fino Kurdima iz Budzeta nek ih roknu tamo na licu mjesta, nesretan slučaj. U budzetu to upisati kao stavka izdavanja protiv borbe za terorizam. Neće niko pitati. I rijesen problem. Vako će gnjida izaći nakon par godina i promovisati svoje umobolne ideje. Imaćemo 300 Bilala Bosnića!!	15	3
Mislis li da te kuje nisu ubijale, maltretirale i sirile fundamentalizam. Terorista je terorista, bez obzira da li je musko ili zensko. Te kurvetine treba isto tako streljati ko i ovu gamad. Da sluzi za opomenu drugima. A i streljanhe je previse humano s obzirom sta su oni tamo radili	18	3
Termini rati negdje uz put. Ova odron tvorevina je puna ovakvih. Hoće islamsku državu, mamu im narakarim. Ovakvi bi nas po kratkom postupku. Ovo odmah treba eliminisati.	19	2
Ovaj Ibro za novu godinu rođen :D	7	0
Nije rodjen na novu godinu, nego su to seljaci prije radili kad se dijete rodi u decembru pa se cekalo da nastupi nova godina da ga upisu u knigu rodjenjih. ‚Da ne gubi godinu‘ im je bio neki fazon, ali do dan danas nisam shvatio po kojoj logici. Imas ih takvih koliko hoces	13	0
Čuvao ovce za Bilala Bosnića, pa kad je postao punoljetan, otišao u Siriju da ratuje. Kakva priča jbt!	31	0
Radikalni musliman zeli da te ubije. Umjereni musliman zeli da te radikalni musliman ubije...	35	6
Samo po zakonu ! Kad mogu srbi iz haga izac i zivjeti slobodno mogu i ovi	7	25
Dabogda ti ovaj prvi komsija bio.	30	3
Samo za tebe i ljubav tvoju zanosnu vracam se majci u Bosnu	10	2
Kad smo primali srbe iz hrvatske zasto nebi i njih	12	27
Ibro je iz malog procenta Bošnjaka što potiču od Vlaha. Nije autohtoni arijevac kao većina nas.	0	18
Koliko si ti arijevac, ja sam toliko marsovac! Kopile poturceno	18	1
Malo kod psihijatra malo platis proglase te ludim dobijes slobodne vikende i poslje 2 god slobodan...	6	0
Kako ce ih osuditi kad nema zakona ni suda nista,..	3	1
Ovi srbi samo belaje	2	8
Za vojne instruktore vazda ima posla, u FBiH omladina ne zna šta je puška, dok ona iz RS-a ide na obuku u Srbiju... Neka im se kazna izrekne na način da moraju obučavati, besplatno, omladince za rukovanje naoružanjem, i tako oduže svoj dug i krivicu prema državi 😎	2	15
A vi bi u zatvor, da leži i bilda, za džabe?	5	2
nema potrebe vracati ih jer su otisli da se ne vrate, ispunite im zelju i po kratkom postupku	16	0
Bubrege odvaliti i trijes godine Zenice ...	11	0
jedan od njih će naj vjerovatnije zamijeniti komesara Halilovića pa ko ukrade ili zapali auto odma mu ruke odsijeku....	4	2
samo ga predat amerikancima cim sleti u Sarajevo. nek ga bace u gvantanamo	13	2
@Tengu jer po međunarodnom zakonu niti jedna zemlja nema pravo da nekome ukine državljanstvo. to sam čuo negdje na vijestima al nisam siguran je li istina	0	0
Koji će nam k. Gdje je onaj klempo što je spalio pasoš.	54	2
Strijeljaj! Nema poente trositi resurse na zohare!	285	29
@Realizam101 Jedino klanjem se resurse ne troše. Pitaj Ibru:))	23	6
@Realizam101 Svako zaslužuje pravedno suđenje pa čak i ISILovi teroristi	9	88
Da, ali postupak treba da se vodi pred narodnim sudom ko 1943 po istom pravilniku. Sudzenje traje 7 minuta, a presuda se izvodi ispred sudnoce javno.	68	4
.... govna smrdljiva...... ...... ubice.....	15	1
I but ce mozda osudjeni na 2-3 godine i to je to! Niti ima zivih svinefoka, ni materijalnih dokaza, niti politicke volje da se ovim divljacima stane u kraj. Fakticki su se odrekli drzavljanstva cim su otisli da se bore za kalifat, zasto ih se tretira kao da imaju pravo da dodju nazad. Dabogda pokrepi svi koji su otisli tamo!	12	0
Samo maksimalna kazna zatvora	9	0
Zbog nedostatka dokaza i svijedoka maksimalna kazna je 3-4 godine. Pa ce opet da se seta okolo i siri svoj fundamentalizam i peksinluk	8	0
Obavezno ih kod psihologa da se vidi jel djecica imaju kakvu traumu,pa im onda dati neku jaku penziju. Upucati gamad na licu mjesta!	11	1
Da je normalna drzava likvidirali bi ih cim kroce u zemlju. Oni su opasnost po ovu drzavu i njene građane	17	1
A sta ce nam, da mi placamo njihov smjestaj, hranu itd. dok uzicaju u zatvoru i sire bolesnu ideologiju.. Ukinut im drzavljanstvo i zavrsena stvar, i njima i tim nekakvim zenama i djeci tih degenerika.. neka im alah pomaze..	15	2
