comment	vote_up	vote_down
Stoka ostaje stoka	342	38
Ne treba vam to rođeni! Ima Velež dosta simpatizera i u glavnom gradu, ne treba vam to, ne pravite štetu Veležu! :/	29	4
https://www.facebook.com/UGMostarskiRodjeni/videos/829436690734801/?t=0	0	0
Čista laž. Pregledajte snimak. Olimpik je najobičniji mafijaški klub.	1	0
Komunjarski kamenjarci koji su nastali na sadaci ne zasluzuju da postoje. Livadici ostaju primitivne lijene seljacine i sramota BiH!	4	5
To je kaobojska liga sve to treba zabraniti nije nista za vas Stoko!!! Vi ste samo za torove	2	0
Eto vam veleza-Psuju ustasku majku njihov trener a cigani gadaju covjeka!Olimpik je gospodski klub za velez a opasno je da velez s takvim sovinistickim trenerom ude u pl!	9	6
@stern Olimpik ne treba porediti sa ovim seljacinama iz prigradskog naselja!	2	5
Uglavu nego kako.	3	3
Jedni su Vukovi sa Ontarija a ovo su Zečevi sa Otoke!	4	1
Klošarska posla.	2	2
Nismo se mi puno odmakli od kamenog doba	4	0
Nikšić pogodio 😁😁	2	0
Dobro su to uradili,pozdravljam.	4	5
seljaci iz Vrapcica majku im rahmetli hahahahhha	11	17
Ova sarajevska policija smije tuci samo sarajevske navijace????	8	1
Bosnjaci...	10	5
Pogodili ga dildom u glavu.	10	2
To ga je Nermin Nikšić odvalio zato što je moro ličnu kartu pokazat redaru.	18	0
Ovi debili su inace poznati po gađanju na svom stadionu gostujucih navijaca Onako herojski nema sta Da bog da se ugasili	21	15
Eh da Olimpik ima svoje navijače yebali bi oni vama nanu kamenjarsku.	18	14
pobijte se bekani !	5	1
Halal vam vjera Rođeni, prvo poluvrijeme odlično, za drugo treba još trenirati.	12	4
Žale se na malo karti, a onda urade ovo. Treba im zabraniti posjetu na svakom stadionu. FUJ!	19	8
RS leglo iskompleksiranih krezubih turskih genetskih otpada i jeftinih kurvi sto se za 10€ Idu krkati po CG HR I cijeloj BIH! Podvode ih rodjeni muzevi i ocevi ( bulevar, dellija, generalmladic, ...)	9	11
Aaaa hublehe i tvrdog predmeta. Simuliranje za veće ciljeve.	8	5
I ovi kloshati da udju u kukuruz chemer😣	14	4
"Glava citava znaci nije bio tvrd nego mekan ""predmet"""	6	4
Taće seljaci, prvaci svijeta u kukanju i nepravdi	22	7
Samo TITINA milicija..	8	1
VELEZ VRAPCICI BILI I OSTALI SELJACINE I OSTALI , SAD IM SLOZITE KANU A I ONOM SELJAKU IBRI STO PSUJE IGRACIMA OLIMPIKA MAJKU I SVE	31	13
Nermin Niksic ga pogodio flašom haha	6	0
Crvena banda,Nikšić i bagra.	18	3
policija trazi licnu od navijaca a dzepovi puni eksera,,, dno dna liga	10	0
Nikšić ga spuco u vugla 100%, kako se samo svađa sa policajcima đubre jedno sdooovsko, pardon sdpovsko.	6	2
@legman hahhaaha ova ti je dobra😂😂😂😂😂	3	1
da ti kajem i stiropol kockica je tvrdi predmet kad ga hitiš sa visine	3	2
Ne treba TO kroz Ivan puštati dok se ne civilizuje. :-D	21	3
@drugPero Ne trreba To ni kroz Jablanicu pustiti. :-D	11	2
jel vam sad jasno sto ne idem na utakmice	10	2
Seljaklook	9	0
NLO.	1	0
Kakvi devojebi, o mati mila oranice nam u rangu ruande.	10	1
Ne treba vam to rođeni! Ima Velež dosta simpatizera i u glavnom gradu, ne treba vam to, ne pravite štetu Veležu! :/	29	4
Vidio bi zastitar ko je bacio predmet jer je taj dio najbolje bio pokriven vizuelno.Cilj je bio iznuditi prekid.	6	6
Za sve je kriv Nermin Niksic, on je podgrijao atmosferu, dosuo ulje na vatru :)	7	1
Dobro nisu Olimpikova 2 ipo navijača odgovorila Veležovim.	15	0
ne znaju sta je stadion	10	2
Sad Nikšića kazniti...To je on organizovao ...😂😂🤣😂😅🤯😇🤧	10	3
Ipak je trebalo pustiti 150 oteli su se kontroli kao što je bilo i predpostaviti	9	3
Što vam ovo treba idite u 1000 pm divljaci ugostimo vas u sarajevu pa ovo je nečiji otac stoko divljačka	23	11
treba ga uhapsiti i u interesu svih navijaca veleza je da ovoga prijave kako nebi bilo vece stete	7	1
Nije dzabe sigurno...	5	7
Spičio ga Nerko fajcakom ...Laki je malo neurozan	11	2
Stoka ostaje stoka	342	38
I njih pustiti na stadion ? Koji Cigani.	19	12
