comment	vote_up	vote_down
Čovjek kojeg bi trebalo proglasiti neprijateljem grada Sarajeva, zajedno sa Senaidom Memićem. Ono na Stupu je strašan zločin, koji će teško biti popravljen ikada u budućnosti.	781	43
@thekupus stup se da lako popraviti, samo treba platiti.. mnogo Ljepsih zgrada na zapadu se srusi za minut, i pocisti za mjesec dana.. tako da nista nije nemoguce kad se ima volje i $$$$	279	13
Pa sta se bunite on je Bakirov covjek dok je god Bakir na vlasti Brajkovic ce gradit po Sarajevu jer ste mu vi glasaci to dozvolili tako samo sutite.	295	37
Problem Sarajeva nije Brajkovic nego vlasti koje su mu omogucile da napravi geto na Stupu. Urbanisticki plan Dubrovnika je vrlo jasan, 6 vila raspoređene urbanisticki, arhitektonski itd.	189	3
@thekupus, nemam pojma,ako ste vi gore to tako vidjeli postupite po prirodnom slijedu,odstranikte nametnika,..	10	5
Ovaj je više unakazio Sarajevo od Karadžićevih životinja..	339	37
Svaka cast al.bolje da gradi u Neumu dazenu odvedem ..nije golf registrovan	0	0
A to sto u svakoj svojoj zgradi ima toplanu i pruza grijanje korisnicima i uzima pare kao da je on TOPLANA SARAJEVO...ko mu je to dozvolio..naravno prodani SDAOVCI IZ NOVOG GRADA.	1	1
jedan od najveći ratni profitera 93-95,koji se obogatio preprodajom hrane bošnjacima, iste one hrane koja je slana kao pomoč i koju su bosanski hrvati KRALI, bolje će raja skontat o kome se radi !!! on je uz pomoč onog smrada Memića i svojih iz vlasti uništio Stup	9	1
Pravi biznismeni imaju fabrike i natjecu se sa svjetskom konkurencijom a ne prave zgrade ratni profiteri koj preko ledja naroda dobijaju dozvole da mogu raditi sta hoce on nekih stranaka. Banditi a ne biznismeni. Pravo belaj napravit 6 kuca u Dubrovniku. U pm,	12	1
Privatnik iz Kiseljaka, nea dalje.	13	1
Brajković, odnosno njegova dubrovačka firma Šest luksuznih vila d.o.o.Znači firma mu je za jednokratnu upotrebu koga zajebe taj je donji .J e b e m novi svetski poredak	5	0
Obogatio se na sirotinji koja je u njegovim Tibra ruglo zgradama u Sarajevu radila na crno za 600 KM	17	9
I sta mi imamo s ovim ama bas Niša sto nas briga za hrvatsku sto gradi a BiH opljačkao	5	4
"Klasični primjer Hrvata iz Kiseljaka koji se obogatio na švercu tokom rata, a sad je biznismen. Svi narodi u BiH imaju dosta uspješnih ""biznismena"" kojima je upravo prvi posao bio šverc."	48	5
Malo se muljalo malo se primalo	8	0
"Kuzi ovo: ""U ulici Kardinala Stepinca"". Nema dva bloka od Trga Jure Francetica.... Jos nesto cuj ""Vile"" u Dubrovniku hahaha daj ljudi nemojte biti smijesni Dubrovnik ima srednjovjekovnu povijest i jeste vise nego prelijepo mjesto ali brata gdje ste vi vidjeli vile po Jadranu mislim malo kada prozujite po Bahamima, Miamiu, Malibu beach-u West Palmu, Arubi Svetom Tomasu, Francuskoj rivijeri. itd onda skontas koliko smo mi dole third world country."	20	26
@STAxJExAAA Dakle mislim na kompletan balkan sa izuzetkom Grcke jer oni su ipak gospoda, kultura civilizacija itd. Dok vamo mi, srbadija, hrvatija, siptarija itd sve ziva barbarija.	20	18
@STAxJExAAA ooo ima vila uz more..predobrih...vjeruj ;)	11	3
@STAxJExAAA nemas ti pojma. Cuj Grci gospoda, kultura i civilizacija.. Gospoda koja je primljena u EU kao da danas primis Moldaviju.. Citavo stoljece parazitiraju na racun Europe zato ovoliki dugovi. A sami Grci nisu ni znali za helenizam do prije 100-150 god, kad su ih Evropljani osnovali kao branu Turskoj, posebno Bavarija (King Otto kralj Grcke).. te helenofili pisci slikari poput Delacroix, Victor Hugo, itd	5	3
Obican lihvar i kriminalac koja ova neskolovana policija nezna dokazati i uhapsiti.	38	2
Svi ćemo mi jednog dana biti građani raznih zemalja porijeklom iz BiH	40	2
i koga briga što gradi, šta mi imamo s tim?	15	4
Ima da gledaju jedna u drugu a ne u more	24	2
"Bosanac moze diplomirati na Harvardu ali nije us tanju da vidi koliko je pametan. Hiljade ljudi je "" kupilo stan"" ima 1/1 u katastru. Zgrada ima 50 stanova i svih 50 ima u katastru 1/1 na istoj povrsini? I onda da bi ga uknjizio jos se plati porez na nesto sto ni teretski ne moze biti vlasnistvo 1/1. Plus sto se placa na silu odrzavanje firmi koju nisu odabrali. Tesko za shvatiti harvardovci?:))"	25	2
Od onakve Sicilije, Korzike, Pulje i Sardinije Džekica našo pravit u prenatrpanom i prenavikanom Dubrovniku. To he taj bošnjačji, balinski mentaliteit.	31	28
@FNM Bosnje nisu pozeljni van balkana	16	13
@FNM S Ibricicem je gradio na ulazu u split i sve je prodo po 3500 e po kvadratu i dobro zaradio!I ovdje ce on i spaha dobro proci s obzirom na cijene u dubrovniku!Nedavno je stan u kuci na stradunu prodan englezu za 6500 eur po kvadratu!Drugi je to svijet za tebe!Ako te zanima, dzeko ima jos 4 gradilista u hrv!	27	3
Lik na Forbesovoj listi a ne znaju kako izgleda hahaha vidi se da je inteligentan	44	1
Kasnite klixe kasnite	5	1
Dole na Stupu napravio ruglo. Nema zelene površine, nema igrališta za djecu, nema sunca niti plavog neba, nema, nema, nema.... Tako je sve počelo.	70	7
Ebo li te arhitekta u guzicu	29	0
Obogatio se varajuci sa Memicem na spratnosti protivno regulacionim planovima.Tako i na onim novim zgradama gdje su dobili P+7,a vec zidaju 9 sprat.Lopov,prevarant,hoštapler.Sta ga predstavljate kao uspjesnog privrednika.Da je normalna drzava bio bi u zatvoru.	76	7
Znam sta su uradili za ove nove zgrade koje trenutno rade.Vijece usvojilo jedan Regulacioni plan,Predsjedavajuci potpisao i Sluzbenom glasniku objavio drugi.Protiv istog je podignuta i krivicna.Ne znam za Hadzica,ali ovaj sve zgrade gradi na Ilidzi.	18	2
"Zbog njegovih zgradurina na stupu nema strujanja zraka pa se gušimo u onolikom smogu..Kod njega je sve po ""zakonu"". Ovi iz Sda su mu to dozvolili nazalost. Gusicemo se idalje dok ne pocrkamo..."	29	12
Ovaj idiot je izvrsio urbicid u gradu Sarajevu, a uz to povecao ekolosku katastrofu.	30	8
Sto mene kao gradjanina Bosne i Hercegovine treba da zanima sta neki tajkun gradi van moje drzave?	21	9
ja mislio El Bake kad sam procitao naslov	8	1
Hajde nek tamo majčin sine napravi TIBRU. Nek samo što dalje od Sarajeva gradi. Sarajevo ga je napravilo najbogatijim covjekom na Balkanu, a zauzvrat je dobilo urbicidne građevine sa kojih se iz depresivnih razloga raja već počela ubijati.	45	5
njegova stvar,	10	5
Balkan je naidealnije podrucje u Europi za stanogradnju. Ljudima je opsesija da kupe stan i nista ne gledaju. Radi 2 mj i digne gredit za stan i to je ludilo koje traje. Kakvi god da su ti stanovi koje je Tibra gradila nije kriv investitor nego ljudi. U bilo kojoj drugoj zemlji bi bankrotirao poslije prve zgrade.	49	9
"@Kupidon , i najvaznije! Nigdje u Europi ne mozes "" kupiti stan! To je prevara stoljeca glupih masa. Kupuje se stanarsko pravo. Da nije tako sve bi oko stanova bilo drugacije, od kvaliteta do odrzavanja."	8	12
"gooUser922337x21,U tome i jeste stvar sto to nije njihova imovina iako naivni tako vjeruju. Investitora nije briga kako ce zgrada izgledati jer su je "" kupili"". Da nije tako on bi sve uradio da odrzava svoju imovinu jer inace pada vrijednost. Podvala sa prodajom i odrzavanjem je kako rekoh podvala stoljeca."	10	1
Gradi Brajko na glavici!	10	2
Ovaj je više unakazio Sarajevo od Karadžićevih životinja..	339	37
Čovjek kojeg bi trebalo proglasiti neprijateljem grada Sarajeva, zajedno sa Senaidom Memićem. Ono na Stupu je strašan zločin, koji će teško biti popravljen ikada u budućnosti.	781	43
@thekupus stup se da lako popraviti, samo treba platiti.. mnogo Ljepsih zgrada na zapadu se srusi za minut, i pocisti za mjesec dana.. tako da nista nije nemoguce kad se ima volje i $$$$	279	13
Pa sta se bunite on je Bakirov covjek dok je god Bakir na vlasti Brajkovic ce gradit po Sarajevu jer ste mu vi glasaci to dozvolili tako samo sutite.	295	37
Problem Sarajeva nije Brajkovic nego vlasti koje su mu omogucile da napravi geto na Stupu. Urbanisticki plan Dubrovnika je vrlo jasan, 6 vila raspoređene urbanisticki, arhitektonski itd.	189	3
@thekupus, nemam pojma,ako ste vi gore to tako vidjeli postupite po prirodnom slijedu,odstranikte nametnika,..	10	5
