comment	vote_up	vote_down
Nek su ih spustili, digli se ko da su Barca a 3 pišljive hiljade na stadionu.	686	144
mislis 8 hiljada?	127	231
không có tiêu đề	102	10
realista ti u Šeher dolazio samo na ekskurziju seljaće malo	39	46
Samo cu ti se nasmijati u lice ( komentar ) hahahahahhaa , pa sada uperiti prstom u tebe i opet ti se nasmijati , hahahahaha	6	17
Golamn Sarajeva daje nestabilnost citavoj ekipi..non stop grijesi....ciji je sin....	24	27
@realista2018 ili ce biti da ste se vi toliko prepali pa u Sarajevu vidjeli Barcu? :o))))	13	4
bravo plemići.	42	11
Jos prije 20ak dana sam reko da necemo uzeti titulu. I u slucaju da je uzmemo to ce biti u bod-dva ganjanje pa ko ima jaceg punca u savezu. Zato sto mi jednostavno imamo seljacki mentalitet, onako nesto ko Baho sa grcima kad rece u 15min da bi potpisali da idu kuci.Jos 30+ bodova u igri oni vec slave titulu. To je znak da smo mentalno nezreli.Dok se to ne promjeni, imacemo 0 olimp. medalja i desetine izgubljenih baraza i historijskih utakmica,i sve manje raje koja se zbog tog nervira	49	5
bravo majstoree.isto sam i ja rekao..za BiH i bahu..i za pola havera što navijaju za Sarajvo da nije gotovo kažu ma jok deremo sve kažu...sad evo šute,i dumaju....prvo skoči pa reci hop	31	1
I koliko je na kraju bilo ljudi :D	0	1
NIKAD PORAZ SAMO LEKCIJA	2	0
Sarajevo pustilo pobjedu Zrinjskom radi kladionica(zar hrvati ne drze sve kladionice u BiH).A titula je vec zapisana i poklonjena na Kosevo....	2	6
Sjever se skupio ko kućni savjet	31	2
bravo plemići.	16	5
U bih treba zakonski zabraniti stadione veceg kapaciteta od 7-8000 jedino za repku da imamo stadion odjedno 25 000	15	2
Slijedeće kolo derbi Željo-Sarajevo ne mora ni da se igra. Ionako će biti 0:0. :-)	15	3
"""Zrinjski zaledio Koševo i potpuno se vratio u borbu za titulu prvaka BiH"" potpuno ? Sarajevo ima 6 bodova vise od Zrinjskog.. novinari na ovom portalu su odron"	17	22
Jeste vi svi debili ?Ili ne kontate da se sve oko kladionice vrti!!!!	18	7
ništa strašno,sve normala teška ,sve je isto ko i lani,..	15	2
@FKS-FKS..... tišu... da vas Lutvo ne bi pojeo za večeru ...... ..... 💙Ž💙E💙L💙J💙O💙 .... ⛵ ....	14	7
Evo sa tekme... Bogami protiv Krupe katasrofa, sve covjek konta umor ha hu, haj ima pauza 20 dana bice bolje i danas( veceras) ovaj šok... Nema se ideje nikako, sve lose lose.. Hebibovic i Bekic fakat salu na stranu ali vise nikakav kredit nemaju barem kod mene... A kako sam povezo sve nama i bod dobar na kosevu protiv ovih... Bogami sad na Grbavicu, pa dolazi Široki 2 najveca testa, ako se ne polozi ode sve u pm.. Bice svega od gotovog vareseja	32	3
@istinailaz28 , a šta je to bilo gotovo,ja ne znam,možda vi to nešto znate,ljudi moji i Željo može biti prvak ,ima još kola,šta je vama,..	12	5
Digli smo se previse slazem se	11	2
@Endy.... vidjet ćemo nas trasu.... laku noć..... Željin 💙 Dalmatinac ⛵	7	5
Nije šala Azijska kladionica	25	5
Radujul` se dusmani? :o)))))	9	9
Kladionice su odigrale veliku ulogu da svinjski pobjedi ali divovi ce se probudi kad tad	12	46
@GospodinFalkao Hahhah, tupko...	19	3
@GospodinFalkao Nije vas stid da se nazivate Divovima, a u rangu ste nekog od klubova iz Moldavije ili Bjelorusije.	22	4
"""Premieršip zadovoljio"""	14	0
Vijetnamci nahebali	16	2
@Gosp.iz Sa..... ..... samo neka bude pošteno..... ..... naravno ... volio bih da pobijedi moj ⚽.k.Ž.💙.... .... realno imate bolju ekipu.... vidjet ćemo..... .... laku noć..gospodine... 💙💙💙💙💙💙💙💙💙 Željo , ljubavi moja ! 🔵⚫⚪🔵⚫⚪🔵⚫⚪ Željin 💙 Dalmatinac ⛵ ....Željin💙Dalmatinac⛵	12	4
@makarska nema zeljo nikakavog dalmatinca vec onog avlijanera lutvu	10	7
U Vjetnamu dan zalosti.	42	4
Kako iko moze da se napali na premijer ligu... ovo ko gledanje pornica na RTLu prije rata... napale te dzaba a nigdije nevidis akcije....	14	1
@TBT'21.... da ne bi naših k... ne vaš ⚽.k.Torpedo sada ni postojao..... ...1921💙.....	8	15
Dže pokupi pamet konj te yebo?	10	4
još ih sad Željo mlatne i spadoše divovi..	32	10
@Endy..... realno smo slabiji od komšija s lavora.... ...... nažalost.... tako nam je.... ...⚽.k.Ž.💙-⚽.k.s lavora ...... X2 kao 🏠...... .....1921💙....⛵....	4	10
@makarska vidiš li da pojma nemaju!!!! ne lupetaj više, života ti..	2	1
Mozda smo izgubili al smo zato lose igrali	32	2
Uze ih bratski klub 😂. Ko će kome ako neće svoj svome. 😂	14	11
Ma hajde šta ima veze za poraz , svakako je večeras tužno 90% vjetnamaca ,a samo 10% naših pitara..	21	6
Golamn Sarajeva daje nestabilnost citavoj ekipi..non stop grijesi....ciji je sin....	4	4
Nema veze,bod bi bio ko VRATA.. jbg šteta predivno veče na prevelikom Koševu.. UPRAVA šta je sa pojačanjima?kad će igrat,2020????? Nema vezeee,nema vezeee,igraaaj Sarajvo,nemaaa vezee nemaa vezee,igraj Sarajvoooo	6	15
a igro je neko??nisam vidio... gdje je napadac novi?a brazilac? a mali Resic? fali Pidro.. fali Adukor..	4	0
Sarajevo je sampion !!! Ljudi nemoj da panicite nakon jednog poraza ,vjerujte u ovu ekipu. Lose odigrali pa šta svakom se moze desiti	15	23
Pobjedit želju u derbiju je neprocjenjivo, ko šiša svinjski! FK Sarajevo do titule!	7	50
Jos prije 20ak dana sam reko da necemo uzeti titulu. I u slucaju da je uzmemo to ce biti u bod-dva ganjanje pa ko ima jaceg punca u savezu. Zato sto mi jednostavno imamo seljacki mentalitet, onako nesto ko Baho sa grcima kad rece u 15min da bi potpisali da idu kuci.Jos 30+ bodova u igri oni vec slave titulu. To je znak da smo mentalno nezreli.Dok se to ne promjeni, imacemo 0 olimp. medalja i desetine izgubljenih baraza i historijskih utakmica,i sve manje raje koja se zbog tog nervira	49	5
bravo majstoree.isto sam i ja rekao..za BiH i bahu..i za pola havera što navijaju za Sarajvo da nije gotovo kažu ma jok deremo sve kažu...sad evo šute,i dumaju....prvo skoči pa reci hop	31	1
kazu Skaka molio Figa da potpise jos juce za Kitare da im danas pomogne oko titule	19	7
.. ⚽.k.Željo - ⚽.k.s lavora nažalost... moj ⚽.k.Ž 💙 ... nema kvalitet da dobije naše komšije s lavora.... .... nažalost..... ..... X2 kao 🏠...... ....⛵....1921💙	3	6
drug moj dragi,ja se iskreno nadam da cemo vas pobjediti da srusimo pickice iz Mostara sa trona,stoji svakako gradska prepiranja,medjutim bolje da trofej ide u Sa. nego u Mostar..@Makarska	2	14
Niste tako mislili kad je trebala kod nas ici umjesto kod njih. Treba vas mlatnuti pa nek ide i kod njihAAAA	6	0
Steta zbog ove prilike Sarajeva da se odmakne, navijam za Zelju i njegov sam ljubitelj i steta bi bilo da se ovi novonastali i nizerazredni klubovi dokopaju pehara. Naprijed Sarajevo do duple krune, sportski pozdrav od Manijaka	21	47
Hahahahah ja sam mu i povjerovao dok nije napisao naprijed sarajevo do duple krune, hahahaha , moze sportski pozdrav, ali naprijed sarajevo do duple , hahahhaa	20	1
Ovo je katastrofa od ekipe i taktike. Nijednu akciju nismo napravili za 90 minuta. Ista taktika i postavka svih 90 minuta evo već druga godina ma kad ne ide promjeni nešto, formaciju ili... Kako ne igraju naša djeca katastrofa smo.	25	1
Jel igro Figo ?	42	1
.... kec kao 🏠..... zajebah se..... ⚽.k.Željo - ⚽.k.s lavora ...... X2 kao 🏠....... .... 1921💙.....	7	8
@makarska ne seri ti s tim debilnim prognozama!	7	4
Husref je jos jednom pokazao da ima vise srece nego znanja. Vrijeme je da shvati da ovaj posao nije za njega.	40	4
Tuga od utakmice.a igraju dva najbolja kluba...	25	4
nikad prvak neces biti ti dok je Zelje moje ljubavi..	22	12
Sad Željo odlučuje o tituli !!!!	41	11
@chelsea999 treba kitarima vratiti za predproslu sezonu pustiti Svinjskom bodove i nek vide kako je	10	3
Prvi mostarski šampion zasluženo, jedan je šampion	50	9
bilo 300 il sto bi horde rekle 3000 HAHAHA realno cuj zaledio kosevo a plus 9 smijesno	10	18
Zrinjski ti si prvak sugave zemlje!	40	18
"Opet se zalite na ""umor"" I od Krupe ste trebali izgubiti"	33	1
Hehehe , dobro ajde realno ovaj poraz nista ne znaci toliko, a sto se tice navijaca sarajeva , hahahah pa jel vas stid , za titulu se borite a 4000 na stadionu, samo vas to pitam, naravno ide sada vasa standardna 8000 :D ja vam oprastam na lazi, ali zapitajte se hoce li vam onaj gore :)	25	12
Sudije oštetile Sarajevo, trebalo je biti najmanje osam minuta nadoknade!	18	22
Draže balijama da titulu uzmu ovi iz UZP-a koji navijaju za Hrvatsku i zvižde BH himni, nego tim iz Sarajeva.	19	42
@Barbarosa19 sta si ti ako nisi balija?	27	4
Radi tebe i ovakvih komentara ne bi mi bilo mrsko i zao kad bi je Borac uzeo :) P.S Ponosni balija ;)	14	5
I corava koka nade zrno,pa tako i Zrinja.Gore glavu SARAJEVO bio je los dan.Mostar u srcu VELEZ do groba.	20	74
@Mostarac1974 de čovječe ne brukaj se...corava koka a tri titule zaredom..drag mi je Velez pa neću sa tobom da se raspravljam do krajnosti...ako bog da iduće godine Derby pa cemo vidjeti	40	3
@Mostarac1974 Nek si im reko	5	9
Danas smo loše odigrali, propustili priliku da napravimo korak ka tituli...	12	4
ZRINJAAAA🏆❤	52	18
Hebibovic los nula bodova..	10	1
joj ovih sa sugavice sto su se uzdigli a -18 je i dalje..	9	23
không có tiêu đề	12	5
U BiH ne treba praviti stadione sa vise od 7000 mjesta.	28	2
imam osjecaj da su pojedini igraci komotno pogrijesili profesiju,jednoatavno nisu za lopte, ne znaju i to je to.	14	1
GAZI PITARE! Ide pisanje po pitarima ide kolo a Zrinjski po titulu	27	14
Ne volim ni ove ere al aferim	12	5
najjaci klub u bih, 100%	22	11
Da nije ova tabela malo bajata, od juce?	15	4
Ni sudci nisu Pitarima pomogli..	40	11
Iduća utakmica Željo - Sarajevo. Kad bi bili pametni da se dogovore da Sarajevo pobijedi. Da ne uzmu titulu ovi iz UZP- a. Ipak su Sarajevo i Željo komšije.	10	88
😂😂😂	20	3
Mrs u tor! Sto da vas pustamo kad vas mozemo razguliti! 1921!!!!	46	7
kao sto je i sarajevo dogovorilo bod sa zeljom prije dvije godine	11	2
Sudjenje - užas, zalaganje naših - taraba Treba se puno stvari u odbrani popraviti ..	16	11
hahhahahahahahahahahhahahahah vijetnammmmmmm	29	12
Husrefe, odlazi!	23	20
Husref i njegove grimase lica nesto ne objasnjivo... Ljudi zasluzeno se branili i odnjeli tri boda.	33	4
Sljedeci tjedan OSVETA MANIJAKA za izbijanje titule dvi godine...Ajmo DRŽAVA ŽELJO..DOKRAJCI IH...MINUS 18 HAHHA	55	17
Ma titula je na Kosevu sellam	18	31
Hehehe pitari	11	8
Bravo za Zrinjski.	55	12
+6 Ja i?????	16	20
hahhahahahahahahaah	10	5
+6 Ja i?????	9	14
hahahhahahahahahahahs	10	4
Ma titula je na Kosevu sellam	9	29
Hehehe pitari	8	4
Potpuno? Pasha 6 bodova nije ni blizu potpuno.	6	12
E vala svaka im čast....Kući izgubiti utakmicu koja je toliko važna,svaka vam čast ljudine....	33	7
Hahhaha e jos na Grbavici sljedece sedmice puša i vidimo se titula. E jeste bili zinuli kitari! 😂😂	43	14
Hahaha jado, Europa je za vas misaona imenica	13	8
@bordobijeli kmeee tituva je nasa! 😂🖕	2	3
EJ KOMSIJE KO NAM BRANl DA SHEBEMO SVE KO VI LANI😂😂😂😂😂	31	10
nek su vala smijali ste se prosle god i pretprosle neka su vas	25	6
Biće Čelik opet šampion!!!!!!!	9	14
penal za zrinjski	14	7
Husrefe odlazi ...haha	18	10
E sramote jebbemti esnaf	13	8
lazu nas da cemo biti prvaci 😂😂	23	3
Nek su ih spustili, digli se ko da su Barca a 3 pišljive hiljade na stadionu.	686	144
mislis 8 hiljada?	127	231
không có tiêu đề	102	10
realista ti u Šeher dolazio samo na ekskurziju seljaće malo	39	46
Samo cu ti se nasmijati u lice ( komentar ) hahahahahhaa , pa sada uperiti prstom u tebe i opet ti se nasmijati , hahahahaha	6	17
Golamn Sarajeva daje nestabilnost citavoj ekipi..non stop grijesi....ciji je sin....	24	27
@realista2018 ili ce biti da ste se vi toliko prepali pa u Sarajevu vidjeli Barcu? :o))))	13	4
bravo plemići.	42	11
E bruka	12	2
